G04 #@! TF.GenerationSoftware,KiCad,Pcbnew,5.1.9*
G04 #@! TF.CreationDate,2021-04-08T11:06:04-04:00*
G04 #@! TF.ProjectId,bldc_soldermask,626c6463-5f73-46f6-9c64-65726d61736b,rev?*
G04 #@! TF.SameCoordinates,Original*
G04 #@! TF.FileFunction,Copper,L2,Bot*
G04 #@! TF.FilePolarity,Positive*
%FSLAX46Y46*%
G04 Gerber Fmt 4.6, Leading zero omitted, Abs format (unit mm)*
G04 Created by KiCad (PCBNEW 5.1.9) date 2021-04-08 11:06:04*
%MOMM*%
%LPD*%
G01*
G04 APERTURE LIST*
G04 #@! TA.AperFunction,NonConductor*
%ADD10C,0.300000*%
G04 #@! TD*
G04 #@! TA.AperFunction,Conductor*
%ADD11C,0.400000*%
G04 #@! TD*
G04 #@! TA.AperFunction,Conductor*
%ADD12C,0.300000*%
G04 #@! TD*
G04 #@! TA.AperFunction,Conductor*
%ADD13C,0.100000*%
G04 #@! TD*
G04 APERTURE END LIST*
D10*
X111828571Y-94307142D02*
X113328571Y-94664285D01*
X112257142Y-94950000D01*
X113328571Y-95235714D01*
X111828571Y-95592857D01*
X111778571Y-104671428D02*
X112992857Y-104671428D01*
X113135714Y-104742857D01*
X113207142Y-104814285D01*
X113278571Y-104957142D01*
X113278571Y-105242857D01*
X113207142Y-105385714D01*
X113135714Y-105457142D01*
X112992857Y-105528571D01*
X111778571Y-105528571D01*
X111728571Y-99500000D02*
X113228571Y-100000000D01*
X111728571Y-100500000D01*
D11*
X91260000Y-92190000D02*
X91260000Y-90200000D01*
X85450000Y-93700000D02*
X89750000Y-93700000D01*
X84300000Y-94850000D02*
X85450000Y-93700000D01*
X89750000Y-93700000D02*
X91260000Y-92190000D01*
X84300000Y-101850000D02*
X84300000Y-94850000D01*
X83300000Y-108975000D02*
X83300000Y-94850000D01*
X83312500Y-108987500D02*
X83300000Y-108975000D01*
X83230000Y-94920000D02*
X83300000Y-94850000D01*
X81800000Y-94920000D02*
X83230000Y-94920000D01*
X88740000Y-92210000D02*
X88740000Y-90200000D01*
X88200000Y-92750000D02*
X88740000Y-92210000D01*
X85075000Y-92750000D02*
X88200000Y-92750000D01*
X83300000Y-94525000D02*
X85075000Y-92750000D01*
X83300000Y-94850000D02*
X83300000Y-94525000D01*
X96000000Y-96700000D02*
X96000000Y-105100000D01*
X97000000Y-106000000D02*
X97000000Y-101200000D01*
X96600000Y-106400000D02*
X97000000Y-106000000D01*
X96000000Y-106400000D02*
X96600000Y-106400000D01*
X98000000Y-106300000D02*
X98000000Y-103500000D01*
X96600000Y-107700000D02*
X98000000Y-106300000D01*
X96000000Y-107700000D02*
X96600000Y-107700000D01*
X90800000Y-108700000D02*
X88800000Y-106700000D01*
X97000000Y-108700000D02*
X90800000Y-108700000D01*
X99000000Y-106700000D02*
X97000000Y-108700000D01*
X99000000Y-89800000D02*
X99000000Y-106700000D01*
X100400000Y-88400000D02*
X99000000Y-89800000D01*
X102600000Y-88400000D02*
X100400000Y-88400000D01*
D12*
X116174636Y-86501962D02*
X115917457Y-86886857D01*
X115740309Y-87314530D01*
X115650000Y-87768545D01*
X115650000Y-88231455D01*
X115740309Y-88685470D01*
X115917457Y-89113143D01*
X116174636Y-89498038D01*
X116501962Y-89825364D01*
X116886857Y-90082543D01*
X117314530Y-90259691D01*
X117768545Y-90350000D01*
X118231455Y-90350000D01*
X118685470Y-90259691D01*
X119113143Y-90082543D01*
X119498038Y-89825364D01*
X119825001Y-89498401D01*
X119825001Y-93237670D01*
X119788215Y-93226511D01*
X119700000Y-93217823D01*
X116700000Y-93217823D01*
X116611785Y-93226511D01*
X116526959Y-93252243D01*
X116448784Y-93294029D01*
X116380263Y-93350263D01*
X116324029Y-93418784D01*
X116282243Y-93496959D01*
X116256511Y-93581785D01*
X116247823Y-93670000D01*
X116247823Y-96170000D01*
X116256511Y-96258215D01*
X116282243Y-96343041D01*
X116324029Y-96421216D01*
X116380263Y-96489737D01*
X116448784Y-96545971D01*
X116526959Y-96587757D01*
X116611785Y-96613489D01*
X116700000Y-96622177D01*
X119700000Y-96622177D01*
X119788215Y-96613489D01*
X119825001Y-96602330D01*
X119825001Y-98317670D01*
X119788215Y-98306511D01*
X119700000Y-98297823D01*
X116700000Y-98297823D01*
X116611785Y-98306511D01*
X116526959Y-98332243D01*
X116448784Y-98374029D01*
X116380263Y-98430263D01*
X116324029Y-98498784D01*
X116282243Y-98576959D01*
X116256511Y-98661785D01*
X116247823Y-98750000D01*
X116247823Y-101250000D01*
X116256511Y-101338215D01*
X116282243Y-101423041D01*
X116324029Y-101501216D01*
X116380263Y-101569737D01*
X116448784Y-101625971D01*
X116526959Y-101667757D01*
X116611785Y-101693489D01*
X116700000Y-101702177D01*
X119700000Y-101702177D01*
X119788215Y-101693489D01*
X119825000Y-101682330D01*
X119825000Y-103397670D01*
X119788215Y-103386511D01*
X119700000Y-103377823D01*
X116700000Y-103377823D01*
X116611785Y-103386511D01*
X116526959Y-103412243D01*
X116448784Y-103454029D01*
X116380263Y-103510263D01*
X116324029Y-103578784D01*
X116282243Y-103656959D01*
X116256511Y-103741785D01*
X116247823Y-103830000D01*
X116247823Y-106330000D01*
X116256511Y-106418215D01*
X116282243Y-106503041D01*
X116324029Y-106581216D01*
X116380263Y-106649737D01*
X116448784Y-106705971D01*
X116526959Y-106747757D01*
X116611785Y-106773489D01*
X116700000Y-106782177D01*
X119700000Y-106782177D01*
X119788215Y-106773489D01*
X119825000Y-106762330D01*
X119825000Y-110501598D01*
X119498038Y-110174636D01*
X119113143Y-109917457D01*
X118685470Y-109740309D01*
X118231455Y-109650000D01*
X117768545Y-109650000D01*
X117314530Y-109740309D01*
X116886857Y-109917457D01*
X116501962Y-110174636D01*
X116174636Y-110501962D01*
X115917457Y-110886857D01*
X115740309Y-111314530D01*
X115650000Y-111768545D01*
X115650000Y-112231455D01*
X115740309Y-112685470D01*
X115917457Y-113113143D01*
X116174636Y-113498038D01*
X116501598Y-113825000D01*
X83498402Y-113825000D01*
X83825364Y-113498038D01*
X84082543Y-113113143D01*
X84259691Y-112685470D01*
X84350000Y-112231455D01*
X84350000Y-111901532D01*
X92405449Y-111901532D01*
X92488573Y-112142440D01*
X92617099Y-112362502D01*
X92786087Y-112553262D01*
X92989043Y-112707388D01*
X93218168Y-112818958D01*
X93368469Y-112864547D01*
X93570000Y-112783282D01*
X93570000Y-111700000D01*
X92486348Y-111700000D01*
X92405449Y-111901532D01*
X84350000Y-111901532D01*
X84350000Y-111768545D01*
X84259691Y-111314530D01*
X84253038Y-111298468D01*
X92405449Y-111298468D01*
X92486348Y-111500000D01*
X93570000Y-111500000D01*
X93570000Y-110416718D01*
X93770000Y-110416718D01*
X93770000Y-111500000D01*
X93790000Y-111500000D01*
X93790000Y-111700000D01*
X93770000Y-111700000D01*
X93770000Y-112783282D01*
X93971531Y-112864547D01*
X94121832Y-112818958D01*
X94350957Y-112707388D01*
X94553913Y-112553262D01*
X94722901Y-112362502D01*
X94851427Y-112142440D01*
X94934551Y-111901532D01*
X94853653Y-111700002D01*
X94910000Y-111700002D01*
X94910000Y-111728039D01*
X94959958Y-111979196D01*
X95057955Y-112215781D01*
X95200224Y-112428702D01*
X95381298Y-112609776D01*
X95594219Y-112752045D01*
X95830804Y-112850042D01*
X96081961Y-112900000D01*
X96338039Y-112900000D01*
X96589196Y-112850042D01*
X96825781Y-112752045D01*
X97038702Y-112609776D01*
X97219776Y-112428702D01*
X97362045Y-112215781D01*
X97447823Y-112008695D01*
X97447823Y-112450000D01*
X97456511Y-112538215D01*
X97482243Y-112623041D01*
X97524029Y-112701216D01*
X97580263Y-112769737D01*
X97648784Y-112825971D01*
X97726959Y-112867757D01*
X97811785Y-112893489D01*
X97900000Y-112902177D01*
X99600000Y-112902177D01*
X99688215Y-112893489D01*
X99773041Y-112867757D01*
X99851216Y-112825971D01*
X99919737Y-112769737D01*
X99975971Y-112701216D01*
X100017757Y-112623041D01*
X100043489Y-112538215D01*
X100052177Y-112450000D01*
X100052177Y-110750000D01*
X100043489Y-110661785D01*
X100017757Y-110576959D01*
X99975971Y-110498784D01*
X99919737Y-110430263D01*
X99851216Y-110374029D01*
X99773041Y-110332243D01*
X99688215Y-110306511D01*
X99600000Y-110297823D01*
X97900000Y-110297823D01*
X97811785Y-110306511D01*
X97726959Y-110332243D01*
X97648784Y-110374029D01*
X97580263Y-110430263D01*
X97524029Y-110498784D01*
X97482243Y-110576959D01*
X97456511Y-110661785D01*
X97447823Y-110750000D01*
X97447823Y-111191305D01*
X97362045Y-110984219D01*
X97219776Y-110771298D01*
X97038702Y-110590224D01*
X96825781Y-110447955D01*
X96589196Y-110349958D01*
X96338039Y-110300000D01*
X96081961Y-110300000D01*
X95830804Y-110349958D01*
X95594219Y-110447955D01*
X95381298Y-110590224D01*
X95200224Y-110771298D01*
X95057955Y-110984219D01*
X94959958Y-111220804D01*
X94910000Y-111471961D01*
X94910000Y-111499998D01*
X94853653Y-111499998D01*
X94934551Y-111298468D01*
X94851427Y-111057560D01*
X94722901Y-110837498D01*
X94553913Y-110646738D01*
X94350957Y-110492612D01*
X94121832Y-110381042D01*
X93971531Y-110335453D01*
X93770000Y-110416718D01*
X93570000Y-110416718D01*
X93368469Y-110335453D01*
X93218168Y-110381042D01*
X92989043Y-110492612D01*
X92786087Y-110646738D01*
X92617099Y-110837498D01*
X92488573Y-111057560D01*
X92405449Y-111298468D01*
X84253038Y-111298468D01*
X84082543Y-110886857D01*
X83825364Y-110501962D01*
X83498038Y-110174636D01*
X83113143Y-109917457D01*
X82685470Y-109740309D01*
X82231455Y-109650000D01*
X81768545Y-109650000D01*
X81314530Y-109740309D01*
X80886857Y-109917457D01*
X80501962Y-110174636D01*
X80175000Y-110501598D01*
X80175000Y-94070000D01*
X80497823Y-94070000D01*
X80497823Y-95770000D01*
X80506511Y-95858215D01*
X80532243Y-95943041D01*
X80574029Y-96021216D01*
X80630263Y-96089737D01*
X80698784Y-96145971D01*
X80776959Y-96187757D01*
X80861785Y-96213489D01*
X80950000Y-96222177D01*
X81421006Y-96222177D01*
X81257560Y-96278573D01*
X81037498Y-96407099D01*
X80846738Y-96576087D01*
X80692612Y-96779043D01*
X80581042Y-97008168D01*
X80535453Y-97158469D01*
X80616718Y-97360000D01*
X81700000Y-97360000D01*
X81700000Y-97340000D01*
X81900000Y-97340000D01*
X81900000Y-97360000D01*
X81920000Y-97360000D01*
X81920000Y-97560000D01*
X81900000Y-97560000D01*
X81900000Y-97580000D01*
X81700000Y-97580000D01*
X81700000Y-97560000D01*
X80616718Y-97560000D01*
X80535453Y-97761531D01*
X80581042Y-97911832D01*
X80692612Y-98140957D01*
X80846738Y-98343913D01*
X81037498Y-98512901D01*
X81257560Y-98641427D01*
X81498468Y-98724551D01*
X81699998Y-98643653D01*
X81699998Y-98700000D01*
X81671961Y-98700000D01*
X81420804Y-98749958D01*
X81184219Y-98847955D01*
X80971298Y-98990224D01*
X80790224Y-99171298D01*
X80647955Y-99384219D01*
X80549958Y-99620804D01*
X80500000Y-99871961D01*
X80500000Y-100128039D01*
X80549958Y-100379196D01*
X80647955Y-100615781D01*
X80790224Y-100828702D01*
X80971298Y-101009776D01*
X81184219Y-101152045D01*
X81420804Y-101250042D01*
X81521140Y-101270000D01*
X81420804Y-101289958D01*
X81184219Y-101387955D01*
X80971298Y-101530224D01*
X80790224Y-101711298D01*
X80647955Y-101924219D01*
X80549958Y-102160804D01*
X80500000Y-102411961D01*
X80500000Y-102668039D01*
X80549958Y-102919196D01*
X80647955Y-103155781D01*
X80790224Y-103368702D01*
X80971298Y-103549776D01*
X81184219Y-103692045D01*
X81420804Y-103790042D01*
X81521140Y-103810000D01*
X81420804Y-103829958D01*
X81184219Y-103927955D01*
X80971298Y-104070224D01*
X80790224Y-104251298D01*
X80647955Y-104464219D01*
X80549958Y-104700804D01*
X80500000Y-104951961D01*
X80500000Y-105208039D01*
X80549958Y-105459196D01*
X80647955Y-105695781D01*
X80790224Y-105908702D01*
X80971298Y-106089776D01*
X81184219Y-106232045D01*
X81420804Y-106330042D01*
X81671961Y-106380000D01*
X81928039Y-106380000D01*
X82179196Y-106330042D01*
X82415781Y-106232045D01*
X82628702Y-106089776D01*
X82650000Y-106068478D01*
X82650000Y-108943078D01*
X82646856Y-108975000D01*
X82650000Y-109006921D01*
X82650000Y-109006931D01*
X82659405Y-109102421D01*
X82677431Y-109161843D01*
X82696573Y-109224947D01*
X82756930Y-109337868D01*
X82766887Y-109350000D01*
X82838157Y-109436843D01*
X82862966Y-109457204D01*
X82875461Y-109469698D01*
X82949633Y-109530570D01*
X83062553Y-109590927D01*
X83185079Y-109628095D01*
X83312500Y-109640644D01*
X83439922Y-109628095D01*
X83562447Y-109590927D01*
X83675368Y-109530570D01*
X83774343Y-109449343D01*
X83855570Y-109350368D01*
X83915927Y-109237447D01*
X83953095Y-109114922D01*
X83965644Y-108987500D01*
X83953095Y-108860079D01*
X83950000Y-108849876D01*
X83950000Y-106700000D01*
X88146856Y-106700000D01*
X88159406Y-106827422D01*
X88196573Y-106949947D01*
X88256930Y-107062868D01*
X88317802Y-107137040D01*
X90317804Y-109137043D01*
X90338157Y-109161843D01*
X90362957Y-109182196D01*
X90362959Y-109182198D01*
X90415049Y-109224947D01*
X90437132Y-109243070D01*
X90550052Y-109303427D01*
X90672578Y-109340595D01*
X90768068Y-109350000D01*
X90768078Y-109350000D01*
X90799999Y-109353144D01*
X90831920Y-109350000D01*
X96968079Y-109350000D01*
X97000000Y-109353144D01*
X97031921Y-109350000D01*
X97031932Y-109350000D01*
X97127422Y-109340595D01*
X97249948Y-109303427D01*
X97362868Y-109243070D01*
X97461843Y-109161843D01*
X97482200Y-109137038D01*
X99437043Y-107182196D01*
X99461843Y-107161843D01*
X99482199Y-107137040D01*
X99543069Y-107062869D01*
X99548268Y-107053144D01*
X99603427Y-106949948D01*
X99640595Y-106827422D01*
X99650000Y-106731932D01*
X99650000Y-106731922D01*
X99653144Y-106700001D01*
X99650000Y-106668080D01*
X99650000Y-103714285D01*
X110995000Y-103714285D01*
X110995000Y-106485714D01*
X114445000Y-106485714D01*
X114445000Y-103714285D01*
X110995000Y-103714285D01*
X99650000Y-103714285D01*
X99650000Y-98757143D01*
X110945000Y-98757143D01*
X110945000Y-101242857D01*
X114395000Y-101242857D01*
X114395000Y-98757143D01*
X110945000Y-98757143D01*
X99650000Y-98757143D01*
X99650000Y-93492857D01*
X111045000Y-93492857D01*
X111045000Y-96407143D01*
X114495000Y-96407143D01*
X114495000Y-93492857D01*
X111045000Y-93492857D01*
X99650000Y-93492857D01*
X99650000Y-90069238D01*
X100669239Y-89050000D01*
X102631932Y-89050000D01*
X102727422Y-89040595D01*
X102849948Y-89003427D01*
X102962868Y-88943070D01*
X103061843Y-88861843D01*
X103143070Y-88762868D01*
X103203427Y-88649948D01*
X103240595Y-88527422D01*
X103253145Y-88400000D01*
X103240595Y-88272578D01*
X103203427Y-88150052D01*
X103143070Y-88037132D01*
X103061843Y-87938157D01*
X102962868Y-87856930D01*
X102849948Y-87796573D01*
X102727422Y-87759405D01*
X102631932Y-87750000D01*
X100431921Y-87750000D01*
X100400000Y-87746856D01*
X100368078Y-87750000D01*
X100368068Y-87750000D01*
X100272578Y-87759405D01*
X100178185Y-87788039D01*
X100150052Y-87796573D01*
X100037131Y-87856930D01*
X99962959Y-87917802D01*
X99962957Y-87917804D01*
X99938157Y-87938157D01*
X99917804Y-87962957D01*
X98562962Y-89317800D01*
X98538157Y-89338157D01*
X98517802Y-89362960D01*
X98456930Y-89437132D01*
X98398282Y-89546855D01*
X98396573Y-89550053D01*
X98359405Y-89672579D01*
X98350000Y-89768069D01*
X98350000Y-89768079D01*
X98346856Y-89800000D01*
X98350000Y-89831922D01*
X98350001Y-102950052D01*
X98249948Y-102896573D01*
X98127422Y-102859405D01*
X98000000Y-102846855D01*
X97872579Y-102859405D01*
X97750053Y-102896573D01*
X97650000Y-102950052D01*
X97650000Y-101168068D01*
X97640595Y-101072578D01*
X97603427Y-100950052D01*
X97543070Y-100837132D01*
X97461843Y-100738157D01*
X97362868Y-100656930D01*
X97249948Y-100596573D01*
X97127422Y-100559405D01*
X97000000Y-100546855D01*
X96872579Y-100559405D01*
X96750053Y-100596573D01*
X96650000Y-100650052D01*
X96650000Y-96668068D01*
X96640595Y-96572578D01*
X96603427Y-96450052D01*
X96543070Y-96337132D01*
X96461843Y-96238157D01*
X96362867Y-96156930D01*
X96249947Y-96096573D01*
X96127421Y-96059405D01*
X96000000Y-96046855D01*
X95872578Y-96059405D01*
X95750052Y-96096573D01*
X95637132Y-96156930D01*
X95538157Y-96238157D01*
X95456930Y-96337133D01*
X95396573Y-96450053D01*
X95359405Y-96572579D01*
X95350000Y-96668069D01*
X95350001Y-105131932D01*
X95359406Y-105227422D01*
X95396574Y-105349948D01*
X95456931Y-105462868D01*
X95538158Y-105561843D01*
X95637133Y-105643070D01*
X95750053Y-105703427D01*
X95872579Y-105740595D01*
X95968069Y-105750000D01*
X95968068Y-105750000D01*
X95872578Y-105759405D01*
X95750052Y-105796573D01*
X95637132Y-105856930D01*
X95538157Y-105938157D01*
X95456930Y-106037132D01*
X95396573Y-106150052D01*
X95359405Y-106272578D01*
X95346855Y-106400000D01*
X95359405Y-106527422D01*
X95396573Y-106649948D01*
X95456930Y-106762868D01*
X95538157Y-106861843D01*
X95637132Y-106943070D01*
X95750052Y-107003427D01*
X95872578Y-107040595D01*
X95968068Y-107050000D01*
X95872578Y-107059405D01*
X95750052Y-107096573D01*
X95637132Y-107156930D01*
X95538157Y-107238157D01*
X95456930Y-107337132D01*
X95396573Y-107450052D01*
X95359405Y-107572578D01*
X95346855Y-107700000D01*
X95359405Y-107827422D01*
X95396573Y-107949948D01*
X95450052Y-108050000D01*
X91069239Y-108050000D01*
X89237040Y-106217802D01*
X89162868Y-106156930D01*
X89049947Y-106096573D01*
X88927422Y-106059406D01*
X88800000Y-106046856D01*
X88672578Y-106059406D01*
X88550053Y-106096573D01*
X88437132Y-106156930D01*
X88338157Y-106238157D01*
X88256930Y-106337132D01*
X88196573Y-106450053D01*
X88159406Y-106572578D01*
X88146856Y-106700000D01*
X83950000Y-106700000D01*
X83950000Y-102399948D01*
X84050052Y-102453427D01*
X84172578Y-102490595D01*
X84300000Y-102503145D01*
X84427421Y-102490595D01*
X84549947Y-102453427D01*
X84662867Y-102393070D01*
X84761843Y-102311843D01*
X84843070Y-102212868D01*
X84903427Y-102099948D01*
X84940595Y-101977422D01*
X84950000Y-101881932D01*
X84950000Y-95119238D01*
X85719239Y-94350000D01*
X89718079Y-94350000D01*
X89750000Y-94353144D01*
X89781921Y-94350000D01*
X89781932Y-94350000D01*
X89877422Y-94340595D01*
X89999948Y-94303427D01*
X90112868Y-94243070D01*
X90211843Y-94161843D01*
X90232200Y-94137038D01*
X91697044Y-92672195D01*
X91721843Y-92651843D01*
X91745861Y-92622578D01*
X91803069Y-92552869D01*
X91803070Y-92552868D01*
X91863427Y-92439948D01*
X91900595Y-92317422D01*
X91910000Y-92221932D01*
X91910000Y-92221922D01*
X91913144Y-92190001D01*
X91910000Y-92158080D01*
X91910000Y-91329181D01*
X92088702Y-91209776D01*
X92269776Y-91028702D01*
X92412045Y-90815781D01*
X92510042Y-90579196D01*
X92530000Y-90478860D01*
X92549958Y-90579196D01*
X92647955Y-90815781D01*
X92790224Y-91028702D01*
X92971298Y-91209776D01*
X93184219Y-91352045D01*
X93420804Y-91450042D01*
X93671961Y-91500000D01*
X93928039Y-91500000D01*
X94179196Y-91450042D01*
X94415781Y-91352045D01*
X94628702Y-91209776D01*
X94809776Y-91028702D01*
X94952045Y-90815781D01*
X95050042Y-90579196D01*
X95070000Y-90478860D01*
X95089958Y-90579196D01*
X95187955Y-90815781D01*
X95330224Y-91028702D01*
X95511298Y-91209776D01*
X95724219Y-91352045D01*
X95960804Y-91450042D01*
X96211961Y-91500000D01*
X96468039Y-91500000D01*
X96719196Y-91450042D01*
X96955781Y-91352045D01*
X97168702Y-91209776D01*
X97349776Y-91028702D01*
X97492045Y-90815781D01*
X97590042Y-90579196D01*
X97640000Y-90328039D01*
X97640000Y-90071961D01*
X97590042Y-89820804D01*
X97492045Y-89584219D01*
X97349776Y-89371298D01*
X97168702Y-89190224D01*
X96955781Y-89047955D01*
X96719196Y-88949958D01*
X96468039Y-88900000D01*
X96440002Y-88900000D01*
X96440002Y-88843283D01*
X96641531Y-88924547D01*
X96791832Y-88878958D01*
X97020957Y-88767388D01*
X97223913Y-88613262D01*
X97392901Y-88422502D01*
X97521427Y-88202440D01*
X97604551Y-87961532D01*
X97523652Y-87760000D01*
X96440000Y-87760000D01*
X96440000Y-87780000D01*
X96240000Y-87780000D01*
X96240000Y-87760000D01*
X95156348Y-87760000D01*
X95075449Y-87961532D01*
X95158573Y-88202440D01*
X95287099Y-88422502D01*
X95456087Y-88613262D01*
X95659043Y-88767388D01*
X95888168Y-88878958D01*
X96038469Y-88924547D01*
X96239998Y-88843283D01*
X96239998Y-88900000D01*
X96211961Y-88900000D01*
X95960804Y-88949958D01*
X95724219Y-89047955D01*
X95511298Y-89190224D01*
X95330224Y-89371298D01*
X95187955Y-89584219D01*
X95089958Y-89820804D01*
X95070000Y-89921140D01*
X95050042Y-89820804D01*
X94952045Y-89584219D01*
X94809776Y-89371298D01*
X94628702Y-89190224D01*
X94415781Y-89047955D01*
X94179196Y-88949958D01*
X93928039Y-88900000D01*
X93900002Y-88900000D01*
X93900002Y-88843283D01*
X94101531Y-88924547D01*
X94251832Y-88878958D01*
X94480957Y-88767388D01*
X94683913Y-88613262D01*
X94852901Y-88422502D01*
X94981427Y-88202440D01*
X95064551Y-87961532D01*
X94983652Y-87760000D01*
X93900000Y-87760000D01*
X93900000Y-87780000D01*
X93700000Y-87780000D01*
X93700000Y-87760000D01*
X93680000Y-87760000D01*
X93680000Y-87560000D01*
X93700000Y-87560000D01*
X93700000Y-86476718D01*
X93900000Y-86476718D01*
X93900000Y-87560000D01*
X94983652Y-87560000D01*
X95064551Y-87358468D01*
X95075449Y-87358468D01*
X95156348Y-87560000D01*
X96240000Y-87560000D01*
X96240000Y-86476718D01*
X96440000Y-86476718D01*
X96440000Y-87560000D01*
X97523652Y-87560000D01*
X97604551Y-87358468D01*
X97521427Y-87117560D01*
X97392901Y-86897498D01*
X97223913Y-86706738D01*
X97020957Y-86552612D01*
X96791832Y-86441042D01*
X96641531Y-86395453D01*
X96440000Y-86476718D01*
X96240000Y-86476718D01*
X96038469Y-86395453D01*
X95888168Y-86441042D01*
X95659043Y-86552612D01*
X95456087Y-86706738D01*
X95287099Y-86897498D01*
X95158573Y-87117560D01*
X95075449Y-87358468D01*
X95064551Y-87358468D01*
X94981427Y-87117560D01*
X94852901Y-86897498D01*
X94683913Y-86706738D01*
X94480957Y-86552612D01*
X94251832Y-86441042D01*
X94101531Y-86395453D01*
X93900000Y-86476718D01*
X93700000Y-86476718D01*
X93498469Y-86395453D01*
X93348168Y-86441042D01*
X93119043Y-86552612D01*
X92916087Y-86706738D01*
X92747099Y-86897498D01*
X92618573Y-87117560D01*
X92535449Y-87358468D01*
X92616347Y-87559998D01*
X92560000Y-87559998D01*
X92560000Y-87531961D01*
X92510042Y-87280804D01*
X92412045Y-87044219D01*
X92269776Y-86831298D01*
X92088702Y-86650224D01*
X91875781Y-86507955D01*
X91639196Y-86409958D01*
X91388039Y-86360000D01*
X91131961Y-86360000D01*
X90880804Y-86409958D01*
X90644219Y-86507955D01*
X90431298Y-86650224D01*
X90250224Y-86831298D01*
X90107955Y-87044219D01*
X90009958Y-87280804D01*
X89998182Y-87340008D01*
X89921427Y-87117560D01*
X89792901Y-86897498D01*
X89623913Y-86706738D01*
X89420957Y-86552612D01*
X89191832Y-86441042D01*
X89041531Y-86395453D01*
X88840000Y-86476718D01*
X88840000Y-87560000D01*
X88860000Y-87560000D01*
X88860000Y-87760000D01*
X88840000Y-87760000D01*
X88840000Y-87780000D01*
X88640000Y-87780000D01*
X88640000Y-87760000D01*
X88620000Y-87760000D01*
X88620000Y-87560000D01*
X88640000Y-87560000D01*
X88640000Y-86476718D01*
X88438469Y-86395453D01*
X88288168Y-86441042D01*
X88059043Y-86552612D01*
X87856087Y-86706738D01*
X87687099Y-86897498D01*
X87558573Y-87117560D01*
X87475449Y-87358468D01*
X87556347Y-87559998D01*
X87500000Y-87559998D01*
X87500000Y-87531961D01*
X87450042Y-87280804D01*
X87352045Y-87044219D01*
X87209776Y-86831298D01*
X87028702Y-86650224D01*
X86815781Y-86507955D01*
X86579196Y-86409958D01*
X86328039Y-86360000D01*
X86071961Y-86360000D01*
X85820804Y-86409958D01*
X85584219Y-86507955D01*
X85371298Y-86650224D01*
X85190224Y-86831298D01*
X85047955Y-87044219D01*
X84949958Y-87280804D01*
X84900000Y-87531961D01*
X84900000Y-87788039D01*
X84949958Y-88039196D01*
X85047955Y-88275781D01*
X85190224Y-88488702D01*
X85371298Y-88669776D01*
X85584219Y-88812045D01*
X85820804Y-88910042D01*
X85921140Y-88930000D01*
X85820804Y-88949958D01*
X85584219Y-89047955D01*
X85371298Y-89190224D01*
X85190224Y-89371298D01*
X85047955Y-89584219D01*
X84949958Y-89820804D01*
X84900000Y-90071961D01*
X84900000Y-90328039D01*
X84949958Y-90579196D01*
X85047955Y-90815781D01*
X85190224Y-91028702D01*
X85371298Y-91209776D01*
X85584219Y-91352045D01*
X85820804Y-91450042D01*
X86071961Y-91500000D01*
X86328039Y-91500000D01*
X86579196Y-91450042D01*
X86815781Y-91352045D01*
X87028702Y-91209776D01*
X87209776Y-91028702D01*
X87352045Y-90815781D01*
X87450042Y-90579196D01*
X87470000Y-90478860D01*
X87489958Y-90579196D01*
X87587955Y-90815781D01*
X87730224Y-91028702D01*
X87911298Y-91209776D01*
X88090000Y-91329181D01*
X88090000Y-91940761D01*
X87930762Y-92100000D01*
X85106921Y-92100000D01*
X85074999Y-92096856D01*
X85043078Y-92100000D01*
X85043068Y-92100000D01*
X84947578Y-92109405D01*
X84825052Y-92146573D01*
X84712132Y-92206930D01*
X84712130Y-92206931D01*
X84712131Y-92206931D01*
X84637959Y-92267802D01*
X84637957Y-92267804D01*
X84613157Y-92288157D01*
X84592804Y-92312957D01*
X83047222Y-93858540D01*
X83025971Y-93818784D01*
X82969737Y-93750263D01*
X82901216Y-93694029D01*
X82823041Y-93652243D01*
X82738215Y-93626511D01*
X82650000Y-93617823D01*
X80950000Y-93617823D01*
X80861785Y-93626511D01*
X80776959Y-93652243D01*
X80698784Y-93694029D01*
X80630263Y-93750263D01*
X80574029Y-93818784D01*
X80532243Y-93896959D01*
X80506511Y-93981785D01*
X80497823Y-94070000D01*
X80175000Y-94070000D01*
X80175000Y-89498402D01*
X80501962Y-89825364D01*
X80886857Y-90082543D01*
X81314530Y-90259691D01*
X81768545Y-90350000D01*
X82231455Y-90350000D01*
X82685470Y-90259691D01*
X83113143Y-90082543D01*
X83498038Y-89825364D01*
X83825364Y-89498038D01*
X84082543Y-89113143D01*
X84259691Y-88685470D01*
X84350000Y-88231455D01*
X84350000Y-87768545D01*
X84259691Y-87314530D01*
X84082543Y-86886857D01*
X83825364Y-86501962D01*
X83498402Y-86175000D01*
X116501598Y-86175000D01*
X116174636Y-86501962D01*
G04 #@! TA.AperFunction,Conductor*
D13*
G36*
X116174636Y-86501962D02*
G01*
X115917457Y-86886857D01*
X115740309Y-87314530D01*
X115650000Y-87768545D01*
X115650000Y-88231455D01*
X115740309Y-88685470D01*
X115917457Y-89113143D01*
X116174636Y-89498038D01*
X116501962Y-89825364D01*
X116886857Y-90082543D01*
X117314530Y-90259691D01*
X117768545Y-90350000D01*
X118231455Y-90350000D01*
X118685470Y-90259691D01*
X119113143Y-90082543D01*
X119498038Y-89825364D01*
X119825001Y-89498401D01*
X119825001Y-93237670D01*
X119788215Y-93226511D01*
X119700000Y-93217823D01*
X116700000Y-93217823D01*
X116611785Y-93226511D01*
X116526959Y-93252243D01*
X116448784Y-93294029D01*
X116380263Y-93350263D01*
X116324029Y-93418784D01*
X116282243Y-93496959D01*
X116256511Y-93581785D01*
X116247823Y-93670000D01*
X116247823Y-96170000D01*
X116256511Y-96258215D01*
X116282243Y-96343041D01*
X116324029Y-96421216D01*
X116380263Y-96489737D01*
X116448784Y-96545971D01*
X116526959Y-96587757D01*
X116611785Y-96613489D01*
X116700000Y-96622177D01*
X119700000Y-96622177D01*
X119788215Y-96613489D01*
X119825001Y-96602330D01*
X119825001Y-98317670D01*
X119788215Y-98306511D01*
X119700000Y-98297823D01*
X116700000Y-98297823D01*
X116611785Y-98306511D01*
X116526959Y-98332243D01*
X116448784Y-98374029D01*
X116380263Y-98430263D01*
X116324029Y-98498784D01*
X116282243Y-98576959D01*
X116256511Y-98661785D01*
X116247823Y-98750000D01*
X116247823Y-101250000D01*
X116256511Y-101338215D01*
X116282243Y-101423041D01*
X116324029Y-101501216D01*
X116380263Y-101569737D01*
X116448784Y-101625971D01*
X116526959Y-101667757D01*
X116611785Y-101693489D01*
X116700000Y-101702177D01*
X119700000Y-101702177D01*
X119788215Y-101693489D01*
X119825000Y-101682330D01*
X119825000Y-103397670D01*
X119788215Y-103386511D01*
X119700000Y-103377823D01*
X116700000Y-103377823D01*
X116611785Y-103386511D01*
X116526959Y-103412243D01*
X116448784Y-103454029D01*
X116380263Y-103510263D01*
X116324029Y-103578784D01*
X116282243Y-103656959D01*
X116256511Y-103741785D01*
X116247823Y-103830000D01*
X116247823Y-106330000D01*
X116256511Y-106418215D01*
X116282243Y-106503041D01*
X116324029Y-106581216D01*
X116380263Y-106649737D01*
X116448784Y-106705971D01*
X116526959Y-106747757D01*
X116611785Y-106773489D01*
X116700000Y-106782177D01*
X119700000Y-106782177D01*
X119788215Y-106773489D01*
X119825000Y-106762330D01*
X119825000Y-110501598D01*
X119498038Y-110174636D01*
X119113143Y-109917457D01*
X118685470Y-109740309D01*
X118231455Y-109650000D01*
X117768545Y-109650000D01*
X117314530Y-109740309D01*
X116886857Y-109917457D01*
X116501962Y-110174636D01*
X116174636Y-110501962D01*
X115917457Y-110886857D01*
X115740309Y-111314530D01*
X115650000Y-111768545D01*
X115650000Y-112231455D01*
X115740309Y-112685470D01*
X115917457Y-113113143D01*
X116174636Y-113498038D01*
X116501598Y-113825000D01*
X83498402Y-113825000D01*
X83825364Y-113498038D01*
X84082543Y-113113143D01*
X84259691Y-112685470D01*
X84350000Y-112231455D01*
X84350000Y-111901532D01*
X92405449Y-111901532D01*
X92488573Y-112142440D01*
X92617099Y-112362502D01*
X92786087Y-112553262D01*
X92989043Y-112707388D01*
X93218168Y-112818958D01*
X93368469Y-112864547D01*
X93570000Y-112783282D01*
X93570000Y-111700000D01*
X92486348Y-111700000D01*
X92405449Y-111901532D01*
X84350000Y-111901532D01*
X84350000Y-111768545D01*
X84259691Y-111314530D01*
X84253038Y-111298468D01*
X92405449Y-111298468D01*
X92486348Y-111500000D01*
X93570000Y-111500000D01*
X93570000Y-110416718D01*
X93770000Y-110416718D01*
X93770000Y-111500000D01*
X93790000Y-111500000D01*
X93790000Y-111700000D01*
X93770000Y-111700000D01*
X93770000Y-112783282D01*
X93971531Y-112864547D01*
X94121832Y-112818958D01*
X94350957Y-112707388D01*
X94553913Y-112553262D01*
X94722901Y-112362502D01*
X94851427Y-112142440D01*
X94934551Y-111901532D01*
X94853653Y-111700002D01*
X94910000Y-111700002D01*
X94910000Y-111728039D01*
X94959958Y-111979196D01*
X95057955Y-112215781D01*
X95200224Y-112428702D01*
X95381298Y-112609776D01*
X95594219Y-112752045D01*
X95830804Y-112850042D01*
X96081961Y-112900000D01*
X96338039Y-112900000D01*
X96589196Y-112850042D01*
X96825781Y-112752045D01*
X97038702Y-112609776D01*
X97219776Y-112428702D01*
X97362045Y-112215781D01*
X97447823Y-112008695D01*
X97447823Y-112450000D01*
X97456511Y-112538215D01*
X97482243Y-112623041D01*
X97524029Y-112701216D01*
X97580263Y-112769737D01*
X97648784Y-112825971D01*
X97726959Y-112867757D01*
X97811785Y-112893489D01*
X97900000Y-112902177D01*
X99600000Y-112902177D01*
X99688215Y-112893489D01*
X99773041Y-112867757D01*
X99851216Y-112825971D01*
X99919737Y-112769737D01*
X99975971Y-112701216D01*
X100017757Y-112623041D01*
X100043489Y-112538215D01*
X100052177Y-112450000D01*
X100052177Y-110750000D01*
X100043489Y-110661785D01*
X100017757Y-110576959D01*
X99975971Y-110498784D01*
X99919737Y-110430263D01*
X99851216Y-110374029D01*
X99773041Y-110332243D01*
X99688215Y-110306511D01*
X99600000Y-110297823D01*
X97900000Y-110297823D01*
X97811785Y-110306511D01*
X97726959Y-110332243D01*
X97648784Y-110374029D01*
X97580263Y-110430263D01*
X97524029Y-110498784D01*
X97482243Y-110576959D01*
X97456511Y-110661785D01*
X97447823Y-110750000D01*
X97447823Y-111191305D01*
X97362045Y-110984219D01*
X97219776Y-110771298D01*
X97038702Y-110590224D01*
X96825781Y-110447955D01*
X96589196Y-110349958D01*
X96338039Y-110300000D01*
X96081961Y-110300000D01*
X95830804Y-110349958D01*
X95594219Y-110447955D01*
X95381298Y-110590224D01*
X95200224Y-110771298D01*
X95057955Y-110984219D01*
X94959958Y-111220804D01*
X94910000Y-111471961D01*
X94910000Y-111499998D01*
X94853653Y-111499998D01*
X94934551Y-111298468D01*
X94851427Y-111057560D01*
X94722901Y-110837498D01*
X94553913Y-110646738D01*
X94350957Y-110492612D01*
X94121832Y-110381042D01*
X93971531Y-110335453D01*
X93770000Y-110416718D01*
X93570000Y-110416718D01*
X93368469Y-110335453D01*
X93218168Y-110381042D01*
X92989043Y-110492612D01*
X92786087Y-110646738D01*
X92617099Y-110837498D01*
X92488573Y-111057560D01*
X92405449Y-111298468D01*
X84253038Y-111298468D01*
X84082543Y-110886857D01*
X83825364Y-110501962D01*
X83498038Y-110174636D01*
X83113143Y-109917457D01*
X82685470Y-109740309D01*
X82231455Y-109650000D01*
X81768545Y-109650000D01*
X81314530Y-109740309D01*
X80886857Y-109917457D01*
X80501962Y-110174636D01*
X80175000Y-110501598D01*
X80175000Y-94070000D01*
X80497823Y-94070000D01*
X80497823Y-95770000D01*
X80506511Y-95858215D01*
X80532243Y-95943041D01*
X80574029Y-96021216D01*
X80630263Y-96089737D01*
X80698784Y-96145971D01*
X80776959Y-96187757D01*
X80861785Y-96213489D01*
X80950000Y-96222177D01*
X81421006Y-96222177D01*
X81257560Y-96278573D01*
X81037498Y-96407099D01*
X80846738Y-96576087D01*
X80692612Y-96779043D01*
X80581042Y-97008168D01*
X80535453Y-97158469D01*
X80616718Y-97360000D01*
X81700000Y-97360000D01*
X81700000Y-97340000D01*
X81900000Y-97340000D01*
X81900000Y-97360000D01*
X81920000Y-97360000D01*
X81920000Y-97560000D01*
X81900000Y-97560000D01*
X81900000Y-97580000D01*
X81700000Y-97580000D01*
X81700000Y-97560000D01*
X80616718Y-97560000D01*
X80535453Y-97761531D01*
X80581042Y-97911832D01*
X80692612Y-98140957D01*
X80846738Y-98343913D01*
X81037498Y-98512901D01*
X81257560Y-98641427D01*
X81498468Y-98724551D01*
X81699998Y-98643653D01*
X81699998Y-98700000D01*
X81671961Y-98700000D01*
X81420804Y-98749958D01*
X81184219Y-98847955D01*
X80971298Y-98990224D01*
X80790224Y-99171298D01*
X80647955Y-99384219D01*
X80549958Y-99620804D01*
X80500000Y-99871961D01*
X80500000Y-100128039D01*
X80549958Y-100379196D01*
X80647955Y-100615781D01*
X80790224Y-100828702D01*
X80971298Y-101009776D01*
X81184219Y-101152045D01*
X81420804Y-101250042D01*
X81521140Y-101270000D01*
X81420804Y-101289958D01*
X81184219Y-101387955D01*
X80971298Y-101530224D01*
X80790224Y-101711298D01*
X80647955Y-101924219D01*
X80549958Y-102160804D01*
X80500000Y-102411961D01*
X80500000Y-102668039D01*
X80549958Y-102919196D01*
X80647955Y-103155781D01*
X80790224Y-103368702D01*
X80971298Y-103549776D01*
X81184219Y-103692045D01*
X81420804Y-103790042D01*
X81521140Y-103810000D01*
X81420804Y-103829958D01*
X81184219Y-103927955D01*
X80971298Y-104070224D01*
X80790224Y-104251298D01*
X80647955Y-104464219D01*
X80549958Y-104700804D01*
X80500000Y-104951961D01*
X80500000Y-105208039D01*
X80549958Y-105459196D01*
X80647955Y-105695781D01*
X80790224Y-105908702D01*
X80971298Y-106089776D01*
X81184219Y-106232045D01*
X81420804Y-106330042D01*
X81671961Y-106380000D01*
X81928039Y-106380000D01*
X82179196Y-106330042D01*
X82415781Y-106232045D01*
X82628702Y-106089776D01*
X82650000Y-106068478D01*
X82650000Y-108943078D01*
X82646856Y-108975000D01*
X82650000Y-109006921D01*
X82650000Y-109006931D01*
X82659405Y-109102421D01*
X82677431Y-109161843D01*
X82696573Y-109224947D01*
X82756930Y-109337868D01*
X82766887Y-109350000D01*
X82838157Y-109436843D01*
X82862966Y-109457204D01*
X82875461Y-109469698D01*
X82949633Y-109530570D01*
X83062553Y-109590927D01*
X83185079Y-109628095D01*
X83312500Y-109640644D01*
X83439922Y-109628095D01*
X83562447Y-109590927D01*
X83675368Y-109530570D01*
X83774343Y-109449343D01*
X83855570Y-109350368D01*
X83915927Y-109237447D01*
X83953095Y-109114922D01*
X83965644Y-108987500D01*
X83953095Y-108860079D01*
X83950000Y-108849876D01*
X83950000Y-106700000D01*
X88146856Y-106700000D01*
X88159406Y-106827422D01*
X88196573Y-106949947D01*
X88256930Y-107062868D01*
X88317802Y-107137040D01*
X90317804Y-109137043D01*
X90338157Y-109161843D01*
X90362957Y-109182196D01*
X90362959Y-109182198D01*
X90415049Y-109224947D01*
X90437132Y-109243070D01*
X90550052Y-109303427D01*
X90672578Y-109340595D01*
X90768068Y-109350000D01*
X90768078Y-109350000D01*
X90799999Y-109353144D01*
X90831920Y-109350000D01*
X96968079Y-109350000D01*
X97000000Y-109353144D01*
X97031921Y-109350000D01*
X97031932Y-109350000D01*
X97127422Y-109340595D01*
X97249948Y-109303427D01*
X97362868Y-109243070D01*
X97461843Y-109161843D01*
X97482200Y-109137038D01*
X99437043Y-107182196D01*
X99461843Y-107161843D01*
X99482199Y-107137040D01*
X99543069Y-107062869D01*
X99548268Y-107053144D01*
X99603427Y-106949948D01*
X99640595Y-106827422D01*
X99650000Y-106731932D01*
X99650000Y-106731922D01*
X99653144Y-106700001D01*
X99650000Y-106668080D01*
X99650000Y-103714285D01*
X110995000Y-103714285D01*
X110995000Y-106485714D01*
X114445000Y-106485714D01*
X114445000Y-103714285D01*
X110995000Y-103714285D01*
X99650000Y-103714285D01*
X99650000Y-98757143D01*
X110945000Y-98757143D01*
X110945000Y-101242857D01*
X114395000Y-101242857D01*
X114395000Y-98757143D01*
X110945000Y-98757143D01*
X99650000Y-98757143D01*
X99650000Y-93492857D01*
X111045000Y-93492857D01*
X111045000Y-96407143D01*
X114495000Y-96407143D01*
X114495000Y-93492857D01*
X111045000Y-93492857D01*
X99650000Y-93492857D01*
X99650000Y-90069238D01*
X100669239Y-89050000D01*
X102631932Y-89050000D01*
X102727422Y-89040595D01*
X102849948Y-89003427D01*
X102962868Y-88943070D01*
X103061843Y-88861843D01*
X103143070Y-88762868D01*
X103203427Y-88649948D01*
X103240595Y-88527422D01*
X103253145Y-88400000D01*
X103240595Y-88272578D01*
X103203427Y-88150052D01*
X103143070Y-88037132D01*
X103061843Y-87938157D01*
X102962868Y-87856930D01*
X102849948Y-87796573D01*
X102727422Y-87759405D01*
X102631932Y-87750000D01*
X100431921Y-87750000D01*
X100400000Y-87746856D01*
X100368078Y-87750000D01*
X100368068Y-87750000D01*
X100272578Y-87759405D01*
X100178185Y-87788039D01*
X100150052Y-87796573D01*
X100037131Y-87856930D01*
X99962959Y-87917802D01*
X99962957Y-87917804D01*
X99938157Y-87938157D01*
X99917804Y-87962957D01*
X98562962Y-89317800D01*
X98538157Y-89338157D01*
X98517802Y-89362960D01*
X98456930Y-89437132D01*
X98398282Y-89546855D01*
X98396573Y-89550053D01*
X98359405Y-89672579D01*
X98350000Y-89768069D01*
X98350000Y-89768079D01*
X98346856Y-89800000D01*
X98350000Y-89831922D01*
X98350001Y-102950052D01*
X98249948Y-102896573D01*
X98127422Y-102859405D01*
X98000000Y-102846855D01*
X97872579Y-102859405D01*
X97750053Y-102896573D01*
X97650000Y-102950052D01*
X97650000Y-101168068D01*
X97640595Y-101072578D01*
X97603427Y-100950052D01*
X97543070Y-100837132D01*
X97461843Y-100738157D01*
X97362868Y-100656930D01*
X97249948Y-100596573D01*
X97127422Y-100559405D01*
X97000000Y-100546855D01*
X96872579Y-100559405D01*
X96750053Y-100596573D01*
X96650000Y-100650052D01*
X96650000Y-96668068D01*
X96640595Y-96572578D01*
X96603427Y-96450052D01*
X96543070Y-96337132D01*
X96461843Y-96238157D01*
X96362867Y-96156930D01*
X96249947Y-96096573D01*
X96127421Y-96059405D01*
X96000000Y-96046855D01*
X95872578Y-96059405D01*
X95750052Y-96096573D01*
X95637132Y-96156930D01*
X95538157Y-96238157D01*
X95456930Y-96337133D01*
X95396573Y-96450053D01*
X95359405Y-96572579D01*
X95350000Y-96668069D01*
X95350001Y-105131932D01*
X95359406Y-105227422D01*
X95396574Y-105349948D01*
X95456931Y-105462868D01*
X95538158Y-105561843D01*
X95637133Y-105643070D01*
X95750053Y-105703427D01*
X95872579Y-105740595D01*
X95968069Y-105750000D01*
X95968068Y-105750000D01*
X95872578Y-105759405D01*
X95750052Y-105796573D01*
X95637132Y-105856930D01*
X95538157Y-105938157D01*
X95456930Y-106037132D01*
X95396573Y-106150052D01*
X95359405Y-106272578D01*
X95346855Y-106400000D01*
X95359405Y-106527422D01*
X95396573Y-106649948D01*
X95456930Y-106762868D01*
X95538157Y-106861843D01*
X95637132Y-106943070D01*
X95750052Y-107003427D01*
X95872578Y-107040595D01*
X95968068Y-107050000D01*
X95872578Y-107059405D01*
X95750052Y-107096573D01*
X95637132Y-107156930D01*
X95538157Y-107238157D01*
X95456930Y-107337132D01*
X95396573Y-107450052D01*
X95359405Y-107572578D01*
X95346855Y-107700000D01*
X95359405Y-107827422D01*
X95396573Y-107949948D01*
X95450052Y-108050000D01*
X91069239Y-108050000D01*
X89237040Y-106217802D01*
X89162868Y-106156930D01*
X89049947Y-106096573D01*
X88927422Y-106059406D01*
X88800000Y-106046856D01*
X88672578Y-106059406D01*
X88550053Y-106096573D01*
X88437132Y-106156930D01*
X88338157Y-106238157D01*
X88256930Y-106337132D01*
X88196573Y-106450053D01*
X88159406Y-106572578D01*
X88146856Y-106700000D01*
X83950000Y-106700000D01*
X83950000Y-102399948D01*
X84050052Y-102453427D01*
X84172578Y-102490595D01*
X84300000Y-102503145D01*
X84427421Y-102490595D01*
X84549947Y-102453427D01*
X84662867Y-102393070D01*
X84761843Y-102311843D01*
X84843070Y-102212868D01*
X84903427Y-102099948D01*
X84940595Y-101977422D01*
X84950000Y-101881932D01*
X84950000Y-95119238D01*
X85719239Y-94350000D01*
X89718079Y-94350000D01*
X89750000Y-94353144D01*
X89781921Y-94350000D01*
X89781932Y-94350000D01*
X89877422Y-94340595D01*
X89999948Y-94303427D01*
X90112868Y-94243070D01*
X90211843Y-94161843D01*
X90232200Y-94137038D01*
X91697044Y-92672195D01*
X91721843Y-92651843D01*
X91745861Y-92622578D01*
X91803069Y-92552869D01*
X91803070Y-92552868D01*
X91863427Y-92439948D01*
X91900595Y-92317422D01*
X91910000Y-92221932D01*
X91910000Y-92221922D01*
X91913144Y-92190001D01*
X91910000Y-92158080D01*
X91910000Y-91329181D01*
X92088702Y-91209776D01*
X92269776Y-91028702D01*
X92412045Y-90815781D01*
X92510042Y-90579196D01*
X92530000Y-90478860D01*
X92549958Y-90579196D01*
X92647955Y-90815781D01*
X92790224Y-91028702D01*
X92971298Y-91209776D01*
X93184219Y-91352045D01*
X93420804Y-91450042D01*
X93671961Y-91500000D01*
X93928039Y-91500000D01*
X94179196Y-91450042D01*
X94415781Y-91352045D01*
X94628702Y-91209776D01*
X94809776Y-91028702D01*
X94952045Y-90815781D01*
X95050042Y-90579196D01*
X95070000Y-90478860D01*
X95089958Y-90579196D01*
X95187955Y-90815781D01*
X95330224Y-91028702D01*
X95511298Y-91209776D01*
X95724219Y-91352045D01*
X95960804Y-91450042D01*
X96211961Y-91500000D01*
X96468039Y-91500000D01*
X96719196Y-91450042D01*
X96955781Y-91352045D01*
X97168702Y-91209776D01*
X97349776Y-91028702D01*
X97492045Y-90815781D01*
X97590042Y-90579196D01*
X97640000Y-90328039D01*
X97640000Y-90071961D01*
X97590042Y-89820804D01*
X97492045Y-89584219D01*
X97349776Y-89371298D01*
X97168702Y-89190224D01*
X96955781Y-89047955D01*
X96719196Y-88949958D01*
X96468039Y-88900000D01*
X96440002Y-88900000D01*
X96440002Y-88843283D01*
X96641531Y-88924547D01*
X96791832Y-88878958D01*
X97020957Y-88767388D01*
X97223913Y-88613262D01*
X97392901Y-88422502D01*
X97521427Y-88202440D01*
X97604551Y-87961532D01*
X97523652Y-87760000D01*
X96440000Y-87760000D01*
X96440000Y-87780000D01*
X96240000Y-87780000D01*
X96240000Y-87760000D01*
X95156348Y-87760000D01*
X95075449Y-87961532D01*
X95158573Y-88202440D01*
X95287099Y-88422502D01*
X95456087Y-88613262D01*
X95659043Y-88767388D01*
X95888168Y-88878958D01*
X96038469Y-88924547D01*
X96239998Y-88843283D01*
X96239998Y-88900000D01*
X96211961Y-88900000D01*
X95960804Y-88949958D01*
X95724219Y-89047955D01*
X95511298Y-89190224D01*
X95330224Y-89371298D01*
X95187955Y-89584219D01*
X95089958Y-89820804D01*
X95070000Y-89921140D01*
X95050042Y-89820804D01*
X94952045Y-89584219D01*
X94809776Y-89371298D01*
X94628702Y-89190224D01*
X94415781Y-89047955D01*
X94179196Y-88949958D01*
X93928039Y-88900000D01*
X93900002Y-88900000D01*
X93900002Y-88843283D01*
X94101531Y-88924547D01*
X94251832Y-88878958D01*
X94480957Y-88767388D01*
X94683913Y-88613262D01*
X94852901Y-88422502D01*
X94981427Y-88202440D01*
X95064551Y-87961532D01*
X94983652Y-87760000D01*
X93900000Y-87760000D01*
X93900000Y-87780000D01*
X93700000Y-87780000D01*
X93700000Y-87760000D01*
X93680000Y-87760000D01*
X93680000Y-87560000D01*
X93700000Y-87560000D01*
X93700000Y-86476718D01*
X93900000Y-86476718D01*
X93900000Y-87560000D01*
X94983652Y-87560000D01*
X95064551Y-87358468D01*
X95075449Y-87358468D01*
X95156348Y-87560000D01*
X96240000Y-87560000D01*
X96240000Y-86476718D01*
X96440000Y-86476718D01*
X96440000Y-87560000D01*
X97523652Y-87560000D01*
X97604551Y-87358468D01*
X97521427Y-87117560D01*
X97392901Y-86897498D01*
X97223913Y-86706738D01*
X97020957Y-86552612D01*
X96791832Y-86441042D01*
X96641531Y-86395453D01*
X96440000Y-86476718D01*
X96240000Y-86476718D01*
X96038469Y-86395453D01*
X95888168Y-86441042D01*
X95659043Y-86552612D01*
X95456087Y-86706738D01*
X95287099Y-86897498D01*
X95158573Y-87117560D01*
X95075449Y-87358468D01*
X95064551Y-87358468D01*
X94981427Y-87117560D01*
X94852901Y-86897498D01*
X94683913Y-86706738D01*
X94480957Y-86552612D01*
X94251832Y-86441042D01*
X94101531Y-86395453D01*
X93900000Y-86476718D01*
X93700000Y-86476718D01*
X93498469Y-86395453D01*
X93348168Y-86441042D01*
X93119043Y-86552612D01*
X92916087Y-86706738D01*
X92747099Y-86897498D01*
X92618573Y-87117560D01*
X92535449Y-87358468D01*
X92616347Y-87559998D01*
X92560000Y-87559998D01*
X92560000Y-87531961D01*
X92510042Y-87280804D01*
X92412045Y-87044219D01*
X92269776Y-86831298D01*
X92088702Y-86650224D01*
X91875781Y-86507955D01*
X91639196Y-86409958D01*
X91388039Y-86360000D01*
X91131961Y-86360000D01*
X90880804Y-86409958D01*
X90644219Y-86507955D01*
X90431298Y-86650224D01*
X90250224Y-86831298D01*
X90107955Y-87044219D01*
X90009958Y-87280804D01*
X89998182Y-87340008D01*
X89921427Y-87117560D01*
X89792901Y-86897498D01*
X89623913Y-86706738D01*
X89420957Y-86552612D01*
X89191832Y-86441042D01*
X89041531Y-86395453D01*
X88840000Y-86476718D01*
X88840000Y-87560000D01*
X88860000Y-87560000D01*
X88860000Y-87760000D01*
X88840000Y-87760000D01*
X88840000Y-87780000D01*
X88640000Y-87780000D01*
X88640000Y-87760000D01*
X88620000Y-87760000D01*
X88620000Y-87560000D01*
X88640000Y-87560000D01*
X88640000Y-86476718D01*
X88438469Y-86395453D01*
X88288168Y-86441042D01*
X88059043Y-86552612D01*
X87856087Y-86706738D01*
X87687099Y-86897498D01*
X87558573Y-87117560D01*
X87475449Y-87358468D01*
X87556347Y-87559998D01*
X87500000Y-87559998D01*
X87500000Y-87531961D01*
X87450042Y-87280804D01*
X87352045Y-87044219D01*
X87209776Y-86831298D01*
X87028702Y-86650224D01*
X86815781Y-86507955D01*
X86579196Y-86409958D01*
X86328039Y-86360000D01*
X86071961Y-86360000D01*
X85820804Y-86409958D01*
X85584219Y-86507955D01*
X85371298Y-86650224D01*
X85190224Y-86831298D01*
X85047955Y-87044219D01*
X84949958Y-87280804D01*
X84900000Y-87531961D01*
X84900000Y-87788039D01*
X84949958Y-88039196D01*
X85047955Y-88275781D01*
X85190224Y-88488702D01*
X85371298Y-88669776D01*
X85584219Y-88812045D01*
X85820804Y-88910042D01*
X85921140Y-88930000D01*
X85820804Y-88949958D01*
X85584219Y-89047955D01*
X85371298Y-89190224D01*
X85190224Y-89371298D01*
X85047955Y-89584219D01*
X84949958Y-89820804D01*
X84900000Y-90071961D01*
X84900000Y-90328039D01*
X84949958Y-90579196D01*
X85047955Y-90815781D01*
X85190224Y-91028702D01*
X85371298Y-91209776D01*
X85584219Y-91352045D01*
X85820804Y-91450042D01*
X86071961Y-91500000D01*
X86328039Y-91500000D01*
X86579196Y-91450042D01*
X86815781Y-91352045D01*
X87028702Y-91209776D01*
X87209776Y-91028702D01*
X87352045Y-90815781D01*
X87450042Y-90579196D01*
X87470000Y-90478860D01*
X87489958Y-90579196D01*
X87587955Y-90815781D01*
X87730224Y-91028702D01*
X87911298Y-91209776D01*
X88090000Y-91329181D01*
X88090000Y-91940761D01*
X87930762Y-92100000D01*
X85106921Y-92100000D01*
X85074999Y-92096856D01*
X85043078Y-92100000D01*
X85043068Y-92100000D01*
X84947578Y-92109405D01*
X84825052Y-92146573D01*
X84712132Y-92206930D01*
X84712130Y-92206931D01*
X84712131Y-92206931D01*
X84637959Y-92267802D01*
X84637957Y-92267804D01*
X84613157Y-92288157D01*
X84592804Y-92312957D01*
X83047222Y-93858540D01*
X83025971Y-93818784D01*
X82969737Y-93750263D01*
X82901216Y-93694029D01*
X82823041Y-93652243D01*
X82738215Y-93626511D01*
X82650000Y-93617823D01*
X80950000Y-93617823D01*
X80861785Y-93626511D01*
X80776959Y-93652243D01*
X80698784Y-93694029D01*
X80630263Y-93750263D01*
X80574029Y-93818784D01*
X80532243Y-93896959D01*
X80506511Y-93981785D01*
X80497823Y-94070000D01*
X80175000Y-94070000D01*
X80175000Y-89498402D01*
X80501962Y-89825364D01*
X80886857Y-90082543D01*
X81314530Y-90259691D01*
X81768545Y-90350000D01*
X82231455Y-90350000D01*
X82685470Y-90259691D01*
X83113143Y-90082543D01*
X83498038Y-89825364D01*
X83825364Y-89498038D01*
X84082543Y-89113143D01*
X84259691Y-88685470D01*
X84350000Y-88231455D01*
X84350000Y-87768545D01*
X84259691Y-87314530D01*
X84082543Y-86886857D01*
X83825364Y-86501962D01*
X83498402Y-86175000D01*
X116501598Y-86175000D01*
X116174636Y-86501962D01*
G37*
G04 #@! TD.AperFunction*
M02*
