%TF.GenerationSoftware,KiCad,Pcbnew,5.1.6*%
%TF.CreationDate,2020-07-05T09:41:49-04:00*%
%TF.ProjectId,hall,68616c6c-2e6b-4696-9361-645f70636258,rev?*%
%TF.SameCoordinates,PX4b26480PY717cbc0*%
%TF.FileFunction,OtherDrawing,Comment*%
%FSLAX46Y46*%
G04 Gerber Fmt 4.6, Leading zero omitted, Abs format (unit mm)*
G04 Created by KiCad (PCBNEW 5.1.6) date 2020-07-05 09:41:49*
%MOMM*%
%LPD*%
G01*
G04 APERTURE LIST*
%ADD10C,0.050000*%
G04 APERTURE END LIST*
D10*
X7380546Y6700704D02*
G75*
G02*
X4374973Y11307895I13819453J12299296D01*
G01*
X1646591Y10060527D02*
G75*
G02*
X4374973Y11307895I1364191J623684D01*
G01*
X5139552Y4706223D02*
G75*
G02*
X1646590Y10060527I16060447J14293777D01*
G01*
X7389750Y6690370D02*
G75*
G02*
X5150250Y4694214I-1119750J-998078D01*
G01*
X40746716Y10045903D02*
G75*
G02*
X37249749Y4694214I-19546716J8954097D01*
G01*
X38025025Y11307895D02*
G75*
G02*
X40753409Y10060527I1364192J-623684D01*
G01*
X38019267Y11295312D02*
G75*
G02*
X35010249Y6690370I-16819267J7704688D01*
G01*
X37249750Y4694214D02*
G75*
G02*
X35010250Y6690370I-1119750J998078D01*
G01*
M02*
