G04 #@! TF.GenerationSoftware,KiCad,Pcbnew,(5.99.0-10072-gb6f2941a06)*
G04 #@! TF.CreationDate,2021-04-08T18:57:16-04:00*
G04 #@! TF.ProjectId,bldc,626c6463-2e6b-4696-9361-645f70636258,rev?*
G04 #@! TF.SameCoordinates,PX5f5e100PY5f5e100*
G04 #@! TF.FileFunction,Profile,NP*
%FSLAX46Y46*%
G04 Gerber Fmt 4.6, Leading zero omitted, Abs format (unit mm)*
G04 Created by KiCad (PCBNEW (5.99.0-10072-gb6f2941a06)) date 2021-04-08 18:57:16*
%MOMM*%
%LPD*%
G01*
G04 APERTURE LIST*
G04 #@! TA.AperFunction,Profile*
%ADD10C,0.050000*%
G04 #@! TD*
G04 APERTURE END LIST*
D10*
X-18000000Y-14000000D02*
G75*
G02*
X-20000000Y-12000000I0J2000000D01*
G01*
X-20000000Y12000000D02*
G75*
G02*
X-18000000Y14000000I2000000J0D01*
G01*
X18000000Y14000000D02*
G75*
G02*
X20000000Y12000000I0J-2000000D01*
G01*
X20000000Y-12000000D02*
G75*
G02*
X18000000Y-14000000I-2000000J0D01*
G01*
X-20000000Y12000000D02*
X-20000000Y-12000000D01*
X-18000000Y14000000D02*
X18000000Y14000000D01*
X20000000Y-12000000D02*
X20000000Y12000000D01*
X18000000Y-14000000D02*
X-18000000Y-14000000D01*
M02*
