EESchema Schematic File Version 4
EELAYER 30 0
EELAYER END
$Descr A4 11693 8268
encoding utf-8
Sheet 1 1
Title ""
Date ""
Rev ""
Comp ""
Comment1 ""
Comment2 ""
Comment3 ""
Comment4 ""
$EndDescr
$Comp
L hall:SS360NT U1
U 1 1 5EFF99F6
P 7800 2650
F 0 "U1" H 7825 2975 50  0000 C CNN
F 1 "SS360NT" H 7825 2884 50  0000 C CNN
F 2 "Package_TO_SOT_SMD:SOT-23" H 7800 2650 50  0001 C CNN
F 3 "" H 7800 2650 50  0001 C CNN
	1    7800 2650
	1    0    0    -1  
$EndComp
$Comp
L hall:SS360NT U2
U 1 1 5EFF9F02
P 7800 3200
F 0 "U2" H 7825 3525 50  0000 C CNN
F 1 "SS360NT" H 7825 3434 50  0000 C CNN
F 2 "Package_TO_SOT_SMD:SOT-23" H 7800 3200 50  0001 C CNN
F 3 "" H 7800 3200 50  0001 C CNN
	1    7800 3200
	1    0    0    -1  
$EndComp
$Comp
L hall:SS360NT U3
U 1 1 5EFFA142
P 7800 3750
F 0 "U3" H 7825 4075 50  0000 C CNN
F 1 "SS360NT" H 7825 3984 50  0000 C CNN
F 2 "Package_TO_SOT_SMD:SOT-23" H 7800 3750 50  0001 C CNN
F 3 "" H 7800 3750 50  0001 C CNN
	1    7800 3750
	1    0    0    -1  
$EndComp
$Comp
L power:+3V0 #PWR0101
U 1 1 5EFFA6FB
P 7550 2500
F 0 "#PWR0101" H 7550 2350 50  0001 C CNN
F 1 "+3V0" H 7565 2673 50  0000 C CNN
F 2 "" H 7550 2500 50  0001 C CNN
F 3 "" H 7550 2500 50  0001 C CNN
	1    7550 2500
	1    0    0    -1  
$EndComp
Wire Wire Line
	7550 2500 7550 2550
Wire Wire Line
	7550 2550 7600 2550
Wire Wire Line
	7550 2550 7550 3100
Wire Wire Line
	7550 3100 7600 3100
Connection ~ 7550 2550
Wire Wire Line
	7550 3100 7550 3650
Wire Wire Line
	7550 3650 7600 3650
Connection ~ 7550 3100
$Comp
L power:GND #PWR0102
U 1 1 5EFFABDC
P 8100 3800
F 0 "#PWR0102" H 8100 3550 50  0001 C CNN
F 1 "GND" H 8105 3627 50  0000 C CNN
F 2 "" H 8100 3800 50  0001 C CNN
F 3 "" H 8100 3800 50  0001 C CNN
	1    8100 3800
	1    0    0    -1  
$EndComp
Wire Wire Line
	8100 3800 8100 3750
Wire Wire Line
	8100 3750 8050 3750
Wire Wire Line
	8050 3200 8100 3200
Wire Wire Line
	8100 3200 8100 3750
Connection ~ 8100 3750
Wire Wire Line
	8050 2650 8100 2650
Wire Wire Line
	8100 2650 8100 3200
Connection ~ 8100 3200
$Comp
L Connector:Conn_01x05_Male J1
U 1 1 5EFFEC8D
P 6450 3200
F 0 "J1" H 6558 3581 50  0000 C CNN
F 1 "Conn_01x05_Male" V 6400 3200 50  0000 C CNN
F 2 "Connector_PinHeader_2.54mm:PinHeader_1x05_P2.54mm_Horizontal" H 6450 3200 50  0001 C CNN
F 3 "~" H 6450 3200 50  0001 C CNN
	1    6450 3200
	1    0    0    1   
$EndComp
Text Label 7200 2750 0    50   ~ 0
HALL1
Text Label 7200 3300 0    50   ~ 0
HALL2
Text Label 7200 3850 0    50   ~ 0
HALL3
$Comp
L power:GND #PWR0103
U 1 1 5F0024FE
P 6700 3450
F 0 "#PWR0103" H 6700 3200 50  0001 C CNN
F 1 "GND" H 6705 3277 50  0000 C CNN
F 2 "" H 6700 3450 50  0001 C CNN
F 3 "" H 6700 3450 50  0001 C CNN
	1    6700 3450
	1    0    0    -1  
$EndComp
$Comp
L power:+3V0 #PWR0104
U 1 1 5F003D61
P 6700 2950
F 0 "#PWR0104" H 6700 2800 50  0001 C CNN
F 1 "+3V0" H 6715 3123 50  0000 C CNN
F 2 "" H 6700 2950 50  0001 C CNN
F 3 "" H 6700 2950 50  0001 C CNN
	1    6700 2950
	1    0    0    -1  
$EndComp
Text Label 7000 3200 2    50   ~ 0
HALL1
Text Label 7000 3300 2    50   ~ 0
HALL2
Text Label 7000 3400 2    50   ~ 0
HALL3
Wire Wire Line
	6650 3400 7000 3400
Wire Wire Line
	6650 3300 7000 3300
Wire Wire Line
	7200 2750 7600 2750
Wire Wire Line
	7200 3300 7600 3300
Wire Wire Line
	7200 3850 7600 3850
Wire Wire Line
	6700 2950 6700 3000
Wire Wire Line
	6700 3000 6650 3000
Wire Wire Line
	6650 3100 6700 3100
Wire Wire Line
	6700 3100 6700 3450
Wire Wire Line
	6650 3200 7000 3200
$EndSCHEMATC
