EESchema Schematic File Version 4
EELAYER 30 0
EELAYER END
$Descr USLetter 11000 8500
encoding utf-8
Sheet 1 1
Title "BLDC Motor Driver"
Date "2020-03-26"
Rev "1"
Comp "Timothy Hollabaugh"
Comment1 ""
Comment2 ""
Comment3 ""
Comment4 ""
$EndDescr
$Comp
L bldc:FDD8424H Q1
U 1 1 5E7871AA
P 7800 1400
F 0 "Q1" H 7850 1700 50  0000 L CNN
F 1 "FDD8424H" H 7300 1700 50  0000 L CNN
F 2 "Package_TO_SOT_SMD:TO-252-4" H 7800 750 50  0001 C CNN
F 3 "https://www.onsemi.com/pub/Collateral/FDD8424H-D.pdf" H 8250 1000 50  0001 C CNN
	1    7800 1400
	1    0    0    -1  
$EndComp
Wire Wire Line
	7350 1300 7450 1300
Wire Wire Line
	7450 1300 7450 1250
Wire Wire Line
	7450 1250 7500 1250
Wire Wire Line
	7350 1200 7400 1200
Wire Wire Line
	7400 1200 7400 1550
Wire Wire Line
	7400 1550 7500 1550
$Comp
L power:GND #PWR0101
U 1 1 5E789A40
P 6950 1950
F 0 "#PWR0101" H 6950 1700 50  0001 C CNN
F 1 "GND" H 6955 1777 50  0000 C CNN
F 2 "" H 6950 1950 50  0001 C CNN
F 3 "" H 6950 1950 50  0001 C CNN
	1    6950 1950
	1    0    0    -1  
$EndComp
$Comp
L power:GND #PWR0102
U 1 1 5E789D11
P 7800 1950
F 0 "#PWR0102" H 7800 1700 50  0001 C CNN
F 1 "GND" H 7805 1777 50  0000 C CNN
F 2 "" H 7800 1950 50  0001 C CNN
F 3 "" H 7800 1950 50  0001 C CNN
	1    7800 1950
	1    0    0    -1  
$EndComp
Wire Wire Line
	6950 1900 6950 1950
Wire Wire Line
	7800 850  7800 1050
Wire Wire Line
	6950 850  6950 900 
Wire Wire Line
	7800 1750 7800 1950
$Comp
L Driver_FET:FAN3278 U3
U 1 1 5E77F0BC
P 6950 1400
F 0 "U3" H 6700 1850 50  0000 C CNN
F 1 "FAN3278" H 7150 1850 50  0000 C CNN
F 2 "Package_SO:SOIC-8_3.9x4.9mm_P1.27mm" H 7000 950 50  0001 L CNN
F 3 "https://www.onsemi.com/pub/Collateral/FAN3278-D.pdf" H 6950 1500 50  0001 C CNN
	1    6950 1400
	1    0    0    -1  
$EndComp
NoConn ~ 6550 1500
NoConn ~ 6550 1600
Text Label 6300 1300 0    50   ~ 0
U_INH
Text Label 6300 1200 0    50   ~ 0
U_INL
Wire Wire Line
	6300 1200 6550 1200
Wire Wire Line
	6550 1300 6300 1300
$Comp
L bldc:FDD8424H Q2
U 1 1 5E8CB20C
P 7800 3000
F 0 "Q2" H 7850 3300 50  0000 L CNN
F 1 "FDD8424H" H 7300 3300 50  0000 L CNN
F 2 "Package_TO_SOT_SMD:TO-252-4" H 7800 2350 50  0001 C CNN
F 3 "https://www.onsemi.com/pub/Collateral/FDD8424H-D.pdf" H 8250 2600 50  0001 C CNN
	1    7800 3000
	1    0    0    -1  
$EndComp
Wire Wire Line
	7350 2900 7450 2900
Wire Wire Line
	7450 2900 7450 2850
Wire Wire Line
	7450 2850 7500 2850
Wire Wire Line
	7350 2800 7400 2800
Wire Wire Line
	7400 2800 7400 3150
Wire Wire Line
	7400 3150 7500 3150
$Comp
L power:GND #PWR0107
U 1 1 5E8CB218
P 6950 3550
F 0 "#PWR0107" H 6950 3300 50  0001 C CNN
F 1 "GND" H 6955 3377 50  0000 C CNN
F 2 "" H 6950 3550 50  0001 C CNN
F 3 "" H 6950 3550 50  0001 C CNN
	1    6950 3550
	1    0    0    -1  
$EndComp
$Comp
L power:GND #PWR0108
U 1 1 5E8CB21E
P 7800 3550
F 0 "#PWR0108" H 7800 3300 50  0001 C CNN
F 1 "GND" H 7805 3377 50  0000 C CNN
F 2 "" H 7800 3550 50  0001 C CNN
F 3 "" H 7800 3550 50  0001 C CNN
	1    7800 3550
	1    0    0    -1  
$EndComp
Wire Wire Line
	6950 3500 6950 3550
Wire Wire Line
	7800 2450 7800 2650
Wire Wire Line
	6950 2450 6950 2500
Text Label 8250 3000 2    50   ~ 0
V_OUT
Wire Wire Line
	7800 3350 7800 3550
$Comp
L Driver_FET:FAN3278 U4
U 1 1 5E8CB235
P 6950 3000
F 0 "U4" H 6700 3450 50  0000 C CNN
F 1 "FAN3278" H 7150 3450 50  0000 C CNN
F 2 "Package_SO:SOIC-8_3.9x4.9mm_P1.27mm" H 7000 2550 50  0001 L CNN
F 3 "https://www.onsemi.com/pub/Collateral/FAN3278-D.pdf" H 6950 3100 50  0001 C CNN
	1    6950 3000
	1    0    0    -1  
$EndComp
NoConn ~ 6550 3100
NoConn ~ 6550 3200
Text Label 6300 2900 0    50   ~ 0
V_INH
Text Label 6300 2800 0    50   ~ 0
V_INL
Wire Wire Line
	6300 2800 6550 2800
Wire Wire Line
	6550 2900 6300 2900
$Comp
L bldc:FDD8424H Q3
U 1 1 5E8D3993
P 7800 4600
F 0 "Q3" H 7850 4900 50  0000 L CNN
F 1 "FDD8424H" H 7300 4900 50  0000 L CNN
F 2 "Package_TO_SOT_SMD:TO-252-4" H 7800 3950 50  0001 C CNN
F 3 "https://www.onsemi.com/pub/Collateral/FDD8424H-D.pdf" H 8250 4200 50  0001 C CNN
	1    7800 4600
	1    0    0    -1  
$EndComp
Wire Wire Line
	7350 4500 7450 4500
Wire Wire Line
	7450 4500 7450 4450
Wire Wire Line
	7450 4450 7500 4450
Wire Wire Line
	7350 4400 7400 4400
Wire Wire Line
	7400 4400 7400 4750
Wire Wire Line
	7400 4750 7500 4750
$Comp
L power:GND #PWR0113
U 1 1 5E8D399F
P 6950 5150
F 0 "#PWR0113" H 6950 4900 50  0001 C CNN
F 1 "GND" H 6955 4977 50  0000 C CNN
F 2 "" H 6950 5150 50  0001 C CNN
F 3 "" H 6950 5150 50  0001 C CNN
	1    6950 5150
	1    0    0    -1  
$EndComp
$Comp
L power:GND #PWR0114
U 1 1 5E8D39A5
P 7800 5150
F 0 "#PWR0114" H 7800 4900 50  0001 C CNN
F 1 "GND" H 7805 4977 50  0000 C CNN
F 2 "" H 7800 5150 50  0001 C CNN
F 3 "" H 7800 5150 50  0001 C CNN
	1    7800 5150
	1    0    0    -1  
$EndComp
Wire Wire Line
	6950 5100 6950 5150
Wire Wire Line
	7800 4050 7800 4250
Wire Wire Line
	6950 4050 6950 4100
Text Label 8250 4600 2    50   ~ 0
W_OUT
Wire Wire Line
	7800 4950 7800 5150
$Comp
L Driver_FET:FAN3278 U5
U 1 1 5E8D39BC
P 6950 4600
F 0 "U5" H 6700 5050 50  0000 C CNN
F 1 "FAN3278" H 7150 5050 50  0000 C CNN
F 2 "Package_SO:SOIC-8_3.9x4.9mm_P1.27mm" H 7000 4150 50  0001 L CNN
F 3 "https://www.onsemi.com/pub/Collateral/FAN3278-D.pdf" H 6950 4700 50  0001 C CNN
	1    6950 4600
	1    0    0    -1  
$EndComp
NoConn ~ 6550 4700
NoConn ~ 6550 4800
Text Label 6300 4500 0    50   ~ 0
W_INH
Text Label 6300 4400 0    50   ~ 0
W_INL
Wire Wire Line
	6300 4400 6550 4400
Wire Wire Line
	6550 4500 6300 4500
Text Label 8250 1400 2    50   ~ 0
U_OUT
$Comp
L stm32g0:STM32G071KBT6 U1
U 1 1 5E7D76A0
P 3850 3300
F 0 "U1" H 3600 4150 50  0000 C CNN
F 1 "STM32G071KBT6" H 4200 4150 50  0000 C CNN
F 2 "Package_QFP:LQFP-32_7x7mm_P0.8mm" H 3800 1950 50  0001 R CNN
F 3 "https://www.st.com/resource/en/datasheet/stm32g071kb.pdf" H 3850 3300 50  0001 C CNN
	1    3850 3300
	1    0    0    -1  
$EndComp
Text Label 2050 3800 2    50   ~ 0
SWDCLK
Text Label 2050 3700 2    50   ~ 0
SWDIO
Wire Wire Line
	2050 3700 1700 3700
Wire Wire Line
	1700 3800 2050 3800
$Comp
L power:+3V0 #PWR0120
U 1 1 5E809742
P 1100 3650
F 0 "#PWR0120" H 1100 3500 50  0001 C CNN
F 1 "+3V0" H 1115 3823 50  0000 C CNN
F 2 "" H 1100 3650 50  0001 C CNN
F 3 "" H 1100 3650 50  0001 C CNN
	1    1100 3650
	1    0    0    -1  
$EndComp
$Comp
L power:GND #PWR0121
U 1 1 5E80D1DF
P 1150 3950
F 0 "#PWR0121" H 1150 3700 50  0001 C CNN
F 1 "GND" H 1155 3777 50  0000 C CNN
F 2 "" H 1150 3950 50  0001 C CNN
F 3 "" H 1150 3950 50  0001 C CNN
	1    1150 3950
	1    0    0    -1  
$EndComp
Wire Wire Line
	3850 2350 3850 2400
Wire Wire Line
	3850 4300 3850 4350
Text Label 2050 3900 2    50   ~ 0
~RST
Wire Wire Line
	2050 3900 1700 3900
Text Label 3100 2600 0    50   ~ 0
~RST
Text Label 4700 4000 2    50   ~ 0
SWDCLK
Text Label 4700 3900 2    50   ~ 0
SWDIO
Wire Wire Line
	4700 3900 4350 3900
Wire Wire Line
	4350 4000 4700 4000
Wire Wire Line
	4700 3300 4350 3300
Wire Wire Line
	3250 3200 2850 3200
Wire Wire Line
	2850 3300 3250 3300
Wire Wire Line
	4700 3400 4350 3400
Wire Wire Line
	4700 3500 4350 3500
Wire Wire Line
	4700 3600 4350 3600
Wire Wire Line
	3100 2600 3250 2600
Text Label 2850 3800 0    50   ~ 0
TX
Text Label 2850 3900 0    50   ~ 0
RX
Wire Wire Line
	2850 3900 3250 3900
Wire Wire Line
	3250 3800 2850 3800
Text Label 1750 1000 2    50   ~ 0
RX
Text Label 1750 900  2    50   ~ 0
TX
Wire Wire Line
	1750 1000 1500 1000
Wire Wire Line
	1500 900  1750 900 
Wire Wire Line
	4700 2800 4350 2800
Wire Wire Line
	4350 3200 4700 3200
Text Label 1900 2350 2    50   ~ 0
PWM
$Comp
L power:GND #PWR0127
U 1 1 5E93C7C0
P 1550 1250
F 0 "#PWR0127" H 1550 1000 50  0001 C CNN
F 1 "GND" H 1555 1077 50  0000 C CNN
F 2 "" H 1550 1250 50  0001 C CNN
F 3 "" H 1550 1250 50  0001 C CNN
	1    1550 1250
	1    0    0    -1  
$EndComp
$Comp
L power:GND #PWR0128
U 1 1 5EAA7E2A
P 1550 2600
F 0 "#PWR0128" H 1550 2350 50  0001 C CNN
F 1 "GND" H 1555 2427 50  0000 C CNN
F 2 "" H 1550 2600 50  0001 C CNN
F 3 "" H 1550 2600 50  0001 C CNN
	1    1550 2600
	1    0    0    -1  
$EndComp
Wire Wire Line
	1900 2350 1500 2350
$Comp
L Regulator_Linear:MIC5205-3.0YM5 U2
U 1 1 5EB04D37
P 4800 1150
F 0 "U2" H 4800 1492 50  0000 C CNN
F 1 "MIC5205-3.0YM5" H 4800 1401 50  0000 C CNN
F 2 "Package_TO_SOT_SMD:SOT-23-5_HandSoldering" H 4800 1475 50  0001 C CNN
F 3 "http://ww1.microchip.com/downloads/en/DeviceDoc/20005785A.pdf" H 4800 1150 50  0001 C CNN
	1    4800 1150
	1    0    0    -1  
$EndComp
$Comp
L Device:C C4
U 1 1 5EB08B30
P 5450 1350
F 0 "C4" H 5565 1396 50  0000 L CNN
F 1 "2.2u" H 5450 1250 50  0000 L CNN
F 2 "Capacitor_SMD:C_0603_1608Metric_Pad1.05x0.95mm_HandSolder" H 5488 1200 50  0001 C CNN
F 3 "~" H 5450 1350 50  0001 C CNN
	1    5450 1350
	1    0    0    -1  
$EndComp
$Comp
L Device:C C3
U 1 1 5EB09594
P 5150 1350
F 0 "C3" H 5265 1396 50  0000 L CNN
F 1 "4.7u" H 5150 1250 50  0000 L CNN
F 2 "Capacitor_SMD:C_0603_1608Metric_Pad1.05x0.95mm_HandSolder" H 5188 1200 50  0001 C CNN
F 3 "~" H 5150 1350 50  0001 C CNN
	1    5150 1350
	1    0    0    -1  
$EndComp
Wire Wire Line
	5100 1150 5150 1150
Wire Wire Line
	5150 1150 5150 1200
Wire Wire Line
	5100 1050 5450 1050
Wire Wire Line
	5450 1050 5450 1200
$Comp
L power:GND #PWR0129
U 1 1 5EB1C8F4
P 4800 1600
F 0 "#PWR0129" H 4800 1350 50  0001 C CNN
F 1 "GND" H 4805 1427 50  0000 C CNN
F 2 "" H 4800 1600 50  0001 C CNN
F 3 "" H 4800 1600 50  0001 C CNN
	1    4800 1600
	1    0    0    -1  
$EndComp
Wire Wire Line
	4800 1450 4800 1550
Wire Wire Line
	4800 1550 5150 1550
Wire Wire Line
	5150 1550 5150 1500
Connection ~ 4800 1550
Wire Wire Line
	4800 1550 4800 1600
Wire Wire Line
	5150 1550 5450 1550
Wire Wire Line
	5450 1550 5450 1500
Connection ~ 5150 1550
$Comp
L power:+3V0 #PWR0130
U 1 1 5EB38115
P 5450 1000
F 0 "#PWR0130" H 5450 850 50  0001 C CNN
F 1 "+3V0" H 5465 1173 50  0000 C CNN
F 2 "" H 5450 1000 50  0001 C CNN
F 3 "" H 5450 1000 50  0001 C CNN
	1    5450 1000
	1    0    0    -1  
$EndComp
Wire Wire Line
	5450 1000 5450 1050
Connection ~ 5450 1050
$Comp
L power:+12V #PWR0131
U 1 1 5EB46CEC
P 3450 900
F 0 "#PWR0131" H 3450 750 50  0001 C CNN
F 1 "+12V" H 3465 1073 50  0000 C CNN
F 2 "" H 3450 900 50  0001 C CNN
F 3 "" H 3450 900 50  0001 C CNN
	1    3450 900 
	1    0    0    -1  
$EndComp
Wire Wire Line
	3450 900  3450 950 
Wire Wire Line
	3450 1050 3700 1050
Wire Wire Line
	4500 1150 4450 1150
Wire Wire Line
	4450 1150 4450 1050
Connection ~ 4450 1050
Wire Wire Line
	4450 1050 4500 1050
Text Label 4700 3600 2    50   ~ 0
W_INH
Text Label 2850 3300 0    50   ~ 0
W_INL
Text Label 2850 3200 0    50   ~ 0
V_INL
Text Label 4700 3500 2    50   ~ 0
V_INH
Text Label 4700 3300 2    50   ~ 0
U_INL
$Comp
L Connector:Conn_01x03_Male J3
U 1 1 5ED6AD3D
P 1300 2450
F 0 "J3" H 1350 2700 50  0000 C CNN
F 1 "PWM" V 1250 2450 50  0000 C CNN
F 2 "Connector_PinHeader_2.54mm:PinHeader_1x03_P2.54mm_Vertical" H 1300 2450 50  0001 C CNN
F 3 "~" H 1300 2450 50  0001 C CNN
	1    1300 2450
	1    0    0    -1  
$EndComp
Wire Wire Line
	1500 2550 1550 2550
Wire Wire Line
	1550 2550 1550 2600
Wire Wire Line
	4350 2600 4700 2600
Wire Wire Line
	4700 2700 4350 2700
$Comp
L Device:C C1
U 1 1 5E8B8D8C
P 5750 1350
F 0 "C1" H 5865 1396 50  0000 L CNN
F 1 "2.2u" H 5750 1250 50  0000 L CNN
F 2 "Capacitor_SMD:C_0603_1608Metric_Pad1.05x0.95mm_HandSolder" H 5788 1200 50  0001 C CNN
F 3 "~" H 5750 1350 50  0001 C CNN
	1    5750 1350
	1    0    0    -1  
$EndComp
Wire Wire Line
	5750 1200 5750 1050
Wire Wire Line
	5750 1050 5450 1050
Wire Wire Line
	5450 1550 5750 1550
Wire Wire Line
	5750 1550 5750 1500
Connection ~ 5450 1550
Wire Wire Line
	1200 3800 1150 3800
Wire Wire Line
	1150 3800 1150 3700
Wire Wire Line
	1150 3700 1200 3700
Connection ~ 1150 3800
Text Label 4700 3400 2    50   ~ 0
U_INH
$Comp
L Connector:Conn_01x05_Male J4
U 1 1 5F0DD337
P 1350 4950
F 0 "J4" H 1458 5331 50  0000 C CNN
F 1 "HALL" H 1458 5240 50  0000 C CNN
F 2 "Connector_PinHeader_2.54mm:PinHeader_1x05_P2.54mm_Horizontal" H 1350 4950 50  0001 C CNN
F 3 "~" H 1350 4950 50  0001 C CNN
	1    1350 4950
	1    0    0    -1  
$EndComp
$Comp
L power:+3V0 #PWR0105
U 1 1 5F0F0C4B
P 1600 4700
F 0 "#PWR0105" H 1600 4550 50  0001 C CNN
F 1 "+3V0" H 1615 4873 50  0000 C CNN
F 2 "" H 1600 4700 50  0001 C CNN
F 3 "" H 1600 4700 50  0001 C CNN
	1    1600 4700
	1    0    0    -1  
$EndComp
$Comp
L power:GND #PWR0106
U 1 1 5F0F0FCE
P 1600 5200
F 0 "#PWR0106" H 1600 4950 50  0001 C CNN
F 1 "GND" H 1605 5027 50  0000 C CNN
F 2 "" H 1600 5200 50  0001 C CNN
F 3 "" H 1600 5200 50  0001 C CNN
	1    1600 5200
	1    0    0    -1  
$EndComp
Wire Wire Line
	1600 5200 1600 4850
Wire Wire Line
	1600 4850 1550 4850
Wire Wire Line
	1550 4750 1600 4750
Wire Wire Line
	1600 4750 1600 4700
Text Label 1900 4950 2    50   ~ 0
U_HALL
Text Label 1900 5050 2    50   ~ 0
V_HALL
Text Label 1900 5150 2    50   ~ 0
W_HALL
Wire Wire Line
	1900 5150 1550 5150
Wire Wire Line
	1550 5050 1900 5050
Wire Wire Line
	1900 4950 1550 4950
Text Label 4700 2700 2    50   ~ 0
V_HALL
Text Label 4700 2600 2    50   ~ 0
U_HALL
Wire Wire Line
	7900 3000 9100 3000
$Comp
L Connector:Conn_01x03_Male J6
U 1 1 5F15BF48
P 9300 3000
F 0 "J6" H 9272 3024 50  0000 R CNN
F 1 "OUT" H 9272 2933 50  0000 R CNN
F 2 "TerminalBlock:TerminalBlock_bornier-3_P5.08mm" H 9300 3000 50  0001 C CNN
F 3 "~" H 9300 3000 50  0001 C CNN
	1    9300 3000
	-1   0    0    1   
$EndComp
Wire Wire Line
	8950 4600 8950 3100
Wire Wire Line
	8950 3100 9100 3100
Wire Wire Line
	7900 4600 8950 4600
Wire Wire Line
	8950 1400 8950 2900
Wire Wire Line
	8950 2900 9100 2900
Wire Wire Line
	7900 1400 8950 1400
Text Label 4700 3200 2    50   ~ 0
PWM
Wire Wire Line
	1100 3650 1100 3900
Wire Wire Line
	1100 3900 1200 3900
Wire Wire Line
	1150 3800 1150 3950
$Comp
L Connector_Generic:Conn_02x03_Odd_Even J1
U 1 1 5E802A6A
P 1500 3800
F 0 "J1" H 1550 4117 50  0000 C CNN
F 1 "SWD" H 1550 4026 50  0000 C CNN
F 2 "Connector_PinHeader_2.54mm:PinHeader_2x03_P2.54mm_Horizontal" H 1500 3800 50  0001 C CNN
F 3 "~" H 1500 3800 50  0001 C CNN
	1    1500 3800
	-1   0    0    1   
$EndComp
Text Label 4700 2800 2    50   ~ 0
W_HALL
NoConn ~ 1500 2450
$Comp
L Connector:Conn_01x01_Male J5
U 1 1 5F207170
P 2550 950
F 0 "J5" H 2658 1131 50  0000 C CNN
F 1 "VIN+" H 2658 1040 50  0000 C CNN
F 2 "Connector_Wire:SolderWirePad_1x01_SMD_1x2mm" H 2550 950 50  0001 C CNN
F 3 "~" H 2550 950 50  0001 C CNN
	1    2550 950 
	1    0    0    -1  
$EndComp
$Comp
L Connector:Conn_01x01_Male J7
U 1 1 5F2072F4
P 2550 1550
F 0 "J7" H 2658 1731 50  0000 C CNN
F 1 "VIN-" H 2658 1640 50  0000 C CNN
F 2 "Connector_Wire:SolderWirePad_1x01_SMD_1x2mm" H 2550 1550 50  0001 C CNN
F 3 "~" H 2550 1550 50  0001 C CNN
	1    2550 1550
	1    0    0    -1  
$EndComp
$Comp
L Connector:Conn_01x04_Male J2
U 1 1 5E8D4FE0
P 1300 1000
F 0 "J2" H 1350 1150 50  0000 C CNN
F 1 "UART" V 1250 1000 50  0000 C CNN
F 2 "Connector_PinHeader_2.54mm:PinHeader_2x02_P2.54mm_Horizontal" H 1300 1000 50  0001 C CNN
F 3 "~" H 1300 1000 50  0001 C CNN
	1    1300 1000
	1    0    0    -1  
$EndComp
$Comp
L Device:C C2
U 1 1 5F22F72A
P 3700 1300
F 0 "C2" H 3815 1346 50  0000 L CNN
F 1 "2.2u" H 3700 1200 50  0000 L CNN
F 2 "Capacitor_SMD:C_0603_1608Metric_Pad1.05x0.95mm_HandSolder" H 3738 1150 50  0001 C CNN
F 3 "~" H 3700 1300 50  0001 C CNN
	1    3700 1300
	1    0    0    -1  
$EndComp
$Comp
L Device:C C5
U 1 1 5F22F9C5
P 4000 1300
F 0 "C5" H 4115 1346 50  0000 L CNN
F 1 "2.2u" H 4000 1200 50  0000 L CNN
F 2 "Capacitor_SMD:C_0603_1608Metric_Pad1.05x0.95mm_HandSolder" H 4038 1150 50  0001 C CNN
F 3 "~" H 4000 1300 50  0001 C CNN
	1    4000 1300
	1    0    0    -1  
$EndComp
$Comp
L Device:C C6
U 1 1 5F22FBD2
P 4300 1300
F 0 "C6" H 4415 1346 50  0000 L CNN
F 1 "2.2u" H 4300 1200 50  0000 L CNN
F 2 "Capacitor_SMD:C_0603_1608Metric_Pad1.05x0.95mm_HandSolder" H 4338 1150 50  0001 C CNN
F 3 "~" H 4300 1300 50  0001 C CNN
	1    4300 1300
	1    0    0    -1  
$EndComp
$Comp
L Mechanical:MountingHole H1
U 1 1 5F12FF43
P 3000 5350
F 0 "H1" H 3100 5396 50  0000 L CNN
F 1 "MountingHole" H 3100 5305 50  0000 L CNN
F 2 "MountingHole:MountingHole_2.2mm_M2" H 3000 5350 50  0001 C CNN
F 3 "~" H 3000 5350 50  0001 C CNN
	1    3000 5350
	1    0    0    -1  
$EndComp
$Comp
L Mechanical:MountingHole H2
U 1 1 5F13200C
P 3000 5550
F 0 "H2" H 3100 5596 50  0000 L CNN
F 1 "MountingHole" H 3100 5505 50  0000 L CNN
F 2 "MountingHole:MountingHole_2.2mm_M2" H 3000 5550 50  0001 C CNN
F 3 "~" H 3000 5550 50  0001 C CNN
	1    3000 5550
	1    0    0    -1  
$EndComp
$Comp
L Device:R R1
U 1 1 5F13BCFE
P 3200 4650
F 0 "R1" H 3270 4696 50  0000 L CNN
F 1 "470" H 3270 4605 50  0000 L CNN
F 2 "Resistor_SMD:R_0603_1608Metric" V 3130 4650 50  0001 C CNN
F 3 "~" H 3200 4650 50  0001 C CNN
	1    3200 4650
	1    0    0    -1  
$EndComp
$Comp
L Device:LED D1
U 1 1 5F13C1AE
P 3200 4300
F 0 "D1" V 3239 4182 50  0000 R CNN
F 1 "LED" V 3148 4182 50  0000 R CNN
F 2 "LED_SMD:LED_0603_1608Metric" H 3200 4300 50  0001 C CNN
F 3 "~" H 3200 4300 50  0001 C CNN
	1    3200 4300
	0    -1   -1   0   
$EndComp
$Comp
L power:GND #PWR0122
U 1 1 5E817CFB
P 3850 4350
F 0 "#PWR0122" H 3850 4100 50  0001 C CNN
F 1 "GND" H 3855 4177 50  0000 C CNN
F 2 "" H 3850 4350 50  0001 C CNN
F 3 "" H 3850 4350 50  0001 C CNN
	1    3850 4350
	1    0    0    -1  
$EndComp
$Comp
L power:GND #PWR0111
U 1 1 5F144019
P 3200 4850
F 0 "#PWR0111" H 3200 4600 50  0001 C CNN
F 1 "GND" H 3205 4677 50  0000 C CNN
F 2 "" H 3200 4850 50  0001 C CNN
F 3 "" H 3200 4850 50  0001 C CNN
	1    3200 4850
	1    0    0    -1  
$EndComp
Wire Wire Line
	3200 4850 3200 4800
Wire Wire Line
	3200 4500 3200 4450
Wire Wire Line
	3250 4100 3200 4100
Wire Wire Line
	3200 4100 3200 4150
$Comp
L Mechanical:MountingHole H3
U 1 1 5F312968
P 3750 5350
F 0 "H3" H 3850 5396 50  0000 L CNN
F 1 "MountingHole" H 3850 5305 50  0000 L CNN
F 2 "MountingHole:MountingHole_2.2mm_M2" H 3750 5350 50  0001 C CNN
F 3 "~" H 3750 5350 50  0001 C CNN
	1    3750 5350
	1    0    0    -1  
$EndComp
$Comp
L Mechanical:MountingHole H4
U 1 1 5F31296E
P 3750 5550
F 0 "H4" H 3850 5596 50  0000 L CNN
F 1 "MountingHole" H 3850 5505 50  0000 L CNN
F 2 "MountingHole:MountingHole_2.2mm_M2" H 3750 5550 50  0001 C CNN
F 3 "~" H 3750 5550 50  0001 C CNN
	1    3750 5550
	1    0    0    -1  
$EndComp
Wire Wire Line
	1500 1200 1550 1200
Wire Wire Line
	1550 1200 1550 1250
$Comp
L power:+3V0 #PWR0112
U 1 1 5F3499DD
P 1550 850
F 0 "#PWR0112" H 1550 700 50  0001 C CNN
F 1 "+3V0" H 1565 1023 50  0000 C CNN
F 2 "" H 1550 850 50  0001 C CNN
F 3 "" H 1550 850 50  0001 C CNN
	1    1550 850 
	1    0    0    -1  
$EndComp
Wire Wire Line
	1550 850  1550 1100
Wire Wire Line
	1550 1100 1500 1100
$Comp
L Device:C C7
U 1 1 5F37E7FB
P 6050 1350
F 0 "C7" H 6165 1396 50  0000 L CNN
F 1 "2.2u" H 6050 1250 50  0000 L CNN
F 2 "Capacitor_SMD:C_0603_1608Metric_Pad1.05x0.95mm_HandSolder" H 6088 1200 50  0001 C CNN
F 3 "~" H 6050 1350 50  0001 C CNN
	1    6050 1350
	1    0    0    -1  
$EndComp
Wire Wire Line
	6050 1200 6050 1050
Wire Wire Line
	6050 1050 5750 1050
Wire Wire Line
	5750 1550 6050 1550
Wire Wire Line
	6050 1550 6050 1500
$Comp
L Device:R R3
U 1 1 5F39EA4C
P 3450 1500
F 0 "R3" V 3400 1350 50  0000 C CNN
F 1 "2k" V 3450 1500 50  0000 C CNN
F 2 "Resistor_SMD:R_0603_1608Metric" V 3380 1500 50  0001 C CNN
F 3 "~" H 3450 1500 50  0001 C CNN
	1    3450 1500
	0    -1   1    0   
$EndComp
$Comp
L Amplifier_Current:ZXCT1109 U6
U 1 1 5F387E9C
P 3250 1300
F 0 "U6" H 3000 1150 50  0000 L CNN
F 1 "ZXCT1107" V 2950 1150 50  0000 L CNN
F 2 "Package_TO_SOT_SMD:SOT-23" H 3250 1300 50  0001 C CNN
F 3 "https://www.diodes.com/assets/Datasheets/ZXCT1107_10.pdf" H 3200 1300 50  0001 C CNN
	1    3250 1300
	1    0    0    -1  
$EndComp
$Comp
L Device:R_Shunt R2
U 1 1 5F414C58
P 3250 950
F 0 "R2" V 3150 950 50  0000 C CNN
F 1 "33m" V 3250 950 50  0000 C CNN
F 2 "Resistor_SMD:R_Shunt_Ohmite_LVK12" V 3180 950 50  0001 C CNN
F 3 "~" H 3250 950 50  0001 C CNN
	1    3250 950 
	0    1    1    0   
$EndComp
Wire Wire Line
	3150 1100 3050 1100
Wire Wire Line
	3350 1100 3450 1100
Wire Wire Line
	3300 1500 3250 1500
Connection ~ 3450 950 
Wire Wire Line
	3450 950  3450 1050
Wire Wire Line
	2750 1550 3650 1550
Wire Wire Line
	2750 950  3050 950 
Text Label 2850 950  0    50   ~ 0
VIN
Connection ~ 5750 1050
Connection ~ 5750 1550
Wire Wire Line
	4000 1150 4000 1050
Connection ~ 4000 1050
Wire Wire Line
	4000 1050 4300 1050
Wire Wire Line
	4300 1150 4300 1050
Connection ~ 4300 1050
Wire Wire Line
	4300 1050 4450 1050
Wire Wire Line
	4300 1450 4300 1550
Connection ~ 4300 1550
Wire Wire Line
	4300 1550 4800 1550
Wire Wire Line
	4000 1450 4000 1550
Connection ~ 4000 1550
Wire Wire Line
	4000 1550 4300 1550
Wire Wire Line
	3700 1450 3700 1550
Connection ~ 3700 1550
Wire Wire Line
	3700 1550 4000 1550
Wire Wire Line
	3700 1150 3700 1050
Connection ~ 3700 1050
Wire Wire Line
	3700 1050 4000 1050
Wire Wire Line
	3600 1500 3650 1500
Wire Wire Line
	3650 1500 3650 1550
Connection ~ 3650 1550
Wire Wire Line
	3650 1550 3700 1550
$Comp
L power:+12V #PWR0103
U 1 1 5F5A7994
P 6950 850
F 0 "#PWR0103" H 6950 700 50  0001 C CNN
F 1 "+12V" H 6965 1023 50  0000 C CNN
F 2 "" H 6950 850 50  0001 C CNN
F 3 "" H 6950 850 50  0001 C CNN
	1    6950 850 
	1    0    0    -1  
$EndComp
$Comp
L power:+12V #PWR0104
U 1 1 5F5A7FAC
P 7800 850
F 0 "#PWR0104" H 7800 700 50  0001 C CNN
F 1 "+12V" H 7815 1023 50  0000 C CNN
F 2 "" H 7800 850 50  0001 C CNN
F 3 "" H 7800 850 50  0001 C CNN
	1    7800 850 
	1    0    0    -1  
$EndComp
$Comp
L power:+12V #PWR0109
U 1 1 5F5AB53B
P 6950 2450
F 0 "#PWR0109" H 6950 2300 50  0001 C CNN
F 1 "+12V" H 6965 2623 50  0000 C CNN
F 2 "" H 6950 2450 50  0001 C CNN
F 3 "" H 6950 2450 50  0001 C CNN
	1    6950 2450
	1    0    0    -1  
$EndComp
$Comp
L power:+12V #PWR0110
U 1 1 5F5AB541
P 7800 2450
F 0 "#PWR0110" H 7800 2300 50  0001 C CNN
F 1 "+12V" H 7815 2623 50  0000 C CNN
F 2 "" H 7800 2450 50  0001 C CNN
F 3 "" H 7800 2450 50  0001 C CNN
	1    7800 2450
	1    0    0    -1  
$EndComp
$Comp
L power:+12V #PWR0115
U 1 1 5F5B3736
P 6950 4050
F 0 "#PWR0115" H 6950 3900 50  0001 C CNN
F 1 "+12V" H 6965 4223 50  0000 C CNN
F 2 "" H 6950 4050 50  0001 C CNN
F 3 "" H 6950 4050 50  0001 C CNN
	1    6950 4050
	1    0    0    -1  
$EndComp
$Comp
L power:+12V #PWR0116
U 1 1 5F5B373C
P 7800 4050
F 0 "#PWR0116" H 7800 3900 50  0001 C CNN
F 1 "+12V" H 7815 4223 50  0000 C CNN
F 2 "" H 7800 4050 50  0001 C CNN
F 3 "" H 7800 4050 50  0001 C CNN
	1    7800 4050
	1    0    0    -1  
$EndComp
$Comp
L Device:R R?
U 1 1 5F60525F
P 4950 4650
F 0 "R?" H 5020 4696 50  0000 L CNN
F 1 "470" H 5020 4605 50  0000 L CNN
F 2 "Resistor_SMD:R_0603_1608Metric" V 4880 4650 50  0001 C CNN
F 3 "~" H 4950 4650 50  0001 C CNN
	1    4950 4650
	1    0    0    -1  
$EndComp
$Comp
L Device:LED D?
U 1 1 5F605265
P 4950 4300
F 0 "D?" V 4989 4182 50  0000 R CNN
F 1 "LED" V 4898 4182 50  0000 R CNN
F 2 "LED_SMD:LED_0603_1608Metric" H 4950 4300 50  0001 C CNN
F 3 "~" H 4950 4300 50  0001 C CNN
	1    4950 4300
	0    -1   -1   0   
$EndComp
$Comp
L power:GND #PWR?
U 1 1 5F60526B
P 4950 4850
F 0 "#PWR?" H 4950 4600 50  0001 C CNN
F 1 "GND" H 4955 4677 50  0000 C CNN
F 2 "" H 4950 4850 50  0001 C CNN
F 3 "" H 4950 4850 50  0001 C CNN
	1    4950 4850
	1    0    0    -1  
$EndComp
Wire Wire Line
	4950 4850 4950 4800
Wire Wire Line
	4950 4500 4950 4450
$Comp
L power:+3V0 #PWR0123
U 1 1 5E819642
P 3850 2350
F 0 "#PWR0123" H 3850 2200 50  0001 C CNN
F 1 "+3V0" H 3865 2523 50  0000 C CNN
F 2 "" H 3850 2350 50  0001 C CNN
F 3 "" H 3850 2350 50  0001 C CNN
	1    3850 2350
	1    0    0    -1  
$EndComp
$Comp
L power:+3V0 #PWR?
U 1 1 5F612167
P 4950 4100
F 0 "#PWR?" H 4950 3950 50  0001 C CNN
F 1 "+3V0" H 4965 4273 50  0000 C CNN
F 2 "" H 4950 4100 50  0001 C CNN
F 3 "" H 4950 4100 50  0001 C CNN
	1    4950 4100
	1    0    0    -1  
$EndComp
Wire Wire Line
	4950 4100 4950 4150
$EndSCHEMATC
